172.18.0.1 - - [04/Oct/2020:12:18:37 +0000] "GET / HTTP/1.1" 500 1439 "-" "Mozilla/5.0 (Windows NT 10.0; Win64; x64) AppleWebKit/537.36 (KHTML, like Gecko) Chrome/85.0.4183.121 Safari/537.36"
172.18.0.1 - - [04/Oct/2020:12:18:37 +0000] "GET /favicon.ico HTTP/1.1" 200 318 "http://localhost:8010/" "Mozilla/5.0 (Windows NT 10.0; Win64; x64) AppleWebKit/537.36 (KHTML, like Gecko) Chrome/85.0.4183.121 Safari/537.36"
172.18.0.1 - - [04/Oct/2020:12:19:38 +0000] "POST /api/sprints/add-task HTTP/1.1" 200 154 "-" "PostmanRuntime/7.26.5"
172.18.0.1 - - [04/Oct/2020:12:19:52 +0000] "POST /api/sprints/close HTTP/1.1" 500 105597 "-" "PostmanRuntime/7.26.5"
172.18.0.1 - - [04/Oct/2020:12:21:21 +0000] "GET /api/tasks HTTP/1.1" 500 97759 "-" "Mozilla/5.0 (Windows NT 10.0; Win64; x64) AppleWebKit/537.36 (KHTML, like Gecko) Chrome/85.0.4183.121 Safari/537.36"
172.18.0.1 - - [04/Oct/2020:12:44:37 +0000] "POST /api/sprints/close HTTP/1.1" 200 52 "-" "PostmanRuntime/7.26.5"
172.18.0.1 - - [04/Oct/2020:12:45:23 +0000] "GET /api/tasks HTTP/1.1" 200 12 "-" "Mozilla/5.0 (Windows NT 10.0; Win64; x64) AppleWebKit/537.36 (KHTML, like Gecko) Chrome/85.0.4183.121 Safari/537.36"
172.18.0.1 - - [26/Nov/2020:14:01:54 +0000] "GET /api/tasks HTTP/1.1" 200 12 "-" "Mozilla/5.0 (Windows NT 10.0; Win64; x64) AppleWebKit/537.36 (KHTML, like Gecko) Chrome/86.0.4240.198 Safari/537.36"
172.18.0.1 - - [26/Nov/2020:14:01:54 +0000] "GET /favicon.ico HTTP/1.1" 200 318 "http://localhost:8010/api/tasks" "Mozilla/5.0 (Windows NT 10.0; Win64; x64) AppleWebKit/537.36 (KHTML, like Gecko) Chrome/86.0.4240.198 Safari/537.36"
172.18.0.1 - - [26/Nov/2020:14:02:11 +0000] "GET /api/documentation HTTP/1.1" 500 76062 "-" "Mozilla/5.0 (Windows NT 10.0; Win64; x64) AppleWebKit/537.36 (KHTML, like Gecko) Chrome/86.0.4240.198 Safari/537.36"
172.18.0.1 - - [26/Nov/2020:14:02:35 +0000] "GET /api/documentation HTTP/1.1" 200 647 "-" "Mozilla/5.0 (Windows NT 10.0; Win64; x64) AppleWebKit/537.36 (KHTML, like Gecko) Chrome/86.0.4240.198 Safari/537.36"
172.18.0.1 - - [26/Nov/2020:14:02:35 +0000] "GET /css/swagger-ui.css HTTP/1.1" 200 143074 "http://localhost:8010/api/documentation" "Mozilla/5.0 (Windows NT 10.0; Win64; x64) AppleWebKit/537.36 (KHTML, like Gecko) Chrome/86.0.4240.198 Safari/537.36"
172.18.0.1 - - [26/Nov/2020:14:02:35 +0000] "GET /js/swagger-ui-bundle.js HTTP/1.1" 200 1038437 "http://localhost:8010/api/documentation" "Mozilla/5.0 (Windows NT 10.0; Win64; x64) AppleWebKit/537.36 (KHTML, like Gecko) Chrome/86.0.4240.198 Safari/537.36"
172.18.0.1 - - [26/Nov/2020:14:02:35 +0000] "GET /js/swagger-ui-standalone-preset.js HTTP/1.1" 200 329478 "http://localhost:8010/api/documentation" "Mozilla/5.0 (Windows NT 10.0; Win64; x64) AppleWebKit/537.36 (KHTML, like Gecko) Chrome/86.0.4240.198 Safari/537.36"
172.18.0.1 - - [26/Nov/2020:14:02:35 +0000] "GET /api/documentation/swagger HTTP/1.1" 500 1597 "http://localhost:8010/api/documentation" "Mozilla/5.0 (Windows NT 10.0; Win64; x64) AppleWebKit/537.36 (KHTML, like Gecko) Chrome/86.0.4240.198 Safari/537.36"
172.18.0.1 - - [26/Nov/2020:14:02:35 +0000] "GET /favicon.ico HTTP/1.1" 200 318 "http://localhost:8010/api/documentation" "Mozilla/5.0 (Windows NT 10.0; Win64; x64) AppleWebKit/537.36 (KHTML, like Gecko) Chrome/86.0.4240.198 Safari/537.36"
172.18.0.1 - - [26/Nov/2020:14:03:29 +0000] "GET /api/documentation HTTP/1.1" 200 647 "-" "Mozilla/5.0 (Windows NT 10.0; Win64; x64) AppleWebKit/537.36 (KHTML, like Gecko) Chrome/86.0.4240.198 Safari/537.36"
172.18.0.1 - - [26/Nov/2020:14:03:29 +0000] "GET /js/swagger-ui-bundle.js HTTP/1.1" 304 0 "http://localhost:8010/api/documentation" "Mozilla/5.0 (Windows NT 10.0; Win64; x64) AppleWebKit/537.36 (KHTML, like Gecko) Chrome/86.0.4240.198 Safari/537.36"
172.18.0.1 - - [26/Nov/2020:14:03:29 +0000] "GET /css/swagger-ui.css HTTP/1.1" 304 0 "http://localhost:8010/api/documentation" "Mozilla/5.0 (Windows NT 10.0; Win64; x64) AppleWebKit/537.36 (KHTML, like Gecko) Chrome/86.0.4240.198 Safari/537.36"
172.18.0.1 - - [26/Nov/2020:14:03:29 +0000] "GET /js/swagger-ui-standalone-preset.js HTTP/1.1" 304 0 "http://localhost:8010/api/documentation" "Mozilla/5.0 (Windows NT 10.0; Win64; x64) AppleWebKit/537.36 (KHTML, like Gecko) Chrome/86.0.4240.198 Safari/537.36"
172.18.0.1 - - [26/Nov/2020:14:03:29 +0000] "GET /favicon.ico HTTP/1.1" 200 318 "http://localhost:8010/api/documentation" "Mozilla/5.0 (Windows NT 10.0; Win64; x64) AppleWebKit/537.36 (KHTML, like Gecko) Chrome/86.0.4240.198 Safari/537.36"
172.18.0.1 - - [26/Nov/2020:14:03:29 +0000] "GET /api/documentation/swagger HTTP/1.1" 500 77121 "http://localhost:8010/api/documentation" "Mozilla/5.0 (Windows NT 10.0; Win64; x64) AppleWebKit/537.36 (KHTML, like Gecko) Chrome/86.0.4240.198 Safari/537.36"
172.18.0.1 - - [26/Nov/2020:14:03:35 +0000] "GET /api/documentation HTTP/1.1" 200 647 "-" "Mozilla/5.0 (Windows NT 10.0; Win64; x64) AppleWebKit/537.36 (KHTML, like Gecko) Chrome/86.0.4240.198 Safari/537.36"
172.18.0.1 - - [26/Nov/2020:14:03:35 +0000] "GET /css/swagger-ui.css HTTP/1.1" 200 143074 "http://localhost:8010/api/documentation" "Mozilla/5.0 (Windows NT 10.0; Win64; x64) AppleWebKit/537.36 (KHTML, like Gecko) Chrome/86.0.4240.198 Safari/537.36"
172.18.0.1 - - [26/Nov/2020:14:03:35 +0000] "GET /js/swagger-ui-bundle.js HTTP/1.1" 200 1038437 "http://localhost:8010/api/documentation" "Mozilla/5.0 (Windows NT 10.0; Win64; x64) AppleWebKit/537.36 (KHTML, like Gecko) Chrome/86.0.4240.198 Safari/537.36"
172.18.0.1 - - [26/Nov/2020:14:03:35 +0000] "GET /js/swagger-ui-standalone-preset.js HTTP/1.1" 200 329478 "http://localhost:8010/api/documentation" "Mozilla/5.0 (Windows NT 10.0; Win64; x64) AppleWebKit/537.36 (KHTML, like Gecko) Chrome/86.0.4240.198 Safari/537.36"
172.18.0.1 - - [26/Nov/2020:14:03:35 +0000] "GET /favicon.ico HTTP/1.1" 200 318 "http://localhost:8010/api/documentation" "Mozilla/5.0 (Windows NT 10.0; Win64; x64) AppleWebKit/537.36 (KHTML, like Gecko) Chrome/86.0.4240.198 Safari/537.36"
172.18.0.1 - - [26/Nov/2020:14:03:35 +0000] "GET /api/documentation/swagger HTTP/1.1" 500 77121 "http://localhost:8010/api/documentation" "Mozilla/5.0 (Windows NT 10.0; Win64; x64) AppleWebKit/537.36 (KHTML, like Gecko) Chrome/86.0.4240.198 Safari/537.36"
172.18.0.1 - - [26/Nov/2020:14:03:43 +0000] "GET /api/documentation/swagger HTTP/1.1" 500 77121 "-" "Mozilla/5.0 (Windows NT 10.0; Win64; x64) AppleWebKit/537.36 (KHTML, like Gecko) Chrome/86.0.4240.198 Safari/537.36"
172.18.0.1 - - [26/Nov/2020:14:04:37 +0000] "GET /api/documentation HTTP/1.1" 200 647 "-" "Mozilla/5.0 (Windows NT 10.0; Win64; x64) AppleWebKit/537.36 (KHTML, like Gecko) Chrome/86.0.4240.198 Safari/537.36"
172.18.0.1 - - [26/Nov/2020:14:04:37 +0000] "GET /css/swagger-ui.css HTTP/1.1" 304 0 "http://localhost:8010/api/documentation" "Mozilla/5.0 (Windows NT 10.0; Win64; x64) AppleWebKit/537.36 (KHTML, like Gecko) Chrome/86.0.4240.198 Safari/537.36"
172.18.0.1 - - [26/Nov/2020:14:04:37 +0000] "GET /js/swagger-ui-bundle.js HTTP/1.1" 304 0 "http://localhost:8010/api/documentation" "Mozilla/5.0 (Windows NT 10.0; Win64; x64) AppleWebKit/537.36 (KHTML, like Gecko) Chrome/86.0.4240.198 Safari/537.36"
172.18.0.1 - - [26/Nov/2020:14:04:37 +0000] "GET /js/swagger-ui-standalone-preset.js HTTP/1.1" 304 0 "http://localhost:8010/api/documentation" "Mozilla/5.0 (Windows NT 10.0; Win64; x64) AppleWebKit/537.36 (KHTML, like Gecko) Chrome/86.0.4240.198 Safari/537.36"
172.18.0.1 - - [26/Nov/2020:14:04:38 +0000] "GET /favicon.ico HTTP/1.1" 200 318 "http://localhost:8010/api/documentation" "Mozilla/5.0 (Windows NT 10.0; Win64; x64) AppleWebKit/537.36 (KHTML, like Gecko) Chrome/86.0.4240.198 Safari/537.36"
172.18.0.1 - - [26/Nov/2020:14:04:38 +0000] "GET /api/documentation/swagger HTTP/1.1" 500 77377 "http://localhost:8010/api/documentation" "Mozilla/5.0 (Windows NT 10.0; Win64; x64) AppleWebKit/537.36 (KHTML, like Gecko) Chrome/86.0.4240.198 Safari/537.36"
172.18.0.1 - - [26/Nov/2020:14:04:39 +0000] "GET /api/documentation/swagger HTTP/1.1" 500 77377 "-" "Mozilla/5.0 (Windows NT 10.0; Win64; x64) AppleWebKit/537.36 (KHTML, like Gecko) Chrome/86.0.4240.198 Safari/537.36"
172.18.0.1 - - [26/Nov/2020:14:04:40 +0000] "GET /favicon.ico HTTP/1.1" 200 318 "http://localhost:8010/api/documentation/swagger" "Mozilla/5.0 (Windows NT 10.0; Win64; x64) AppleWebKit/537.36 (KHTML, like Gecko) Chrome/86.0.4240.198 Safari/537.36"
172.18.0.1 - - [26/Nov/2020:14:04:40 +0000] "GET /api/documentation/swagger HTTP/1.1" 500 77377 "-" "Mozilla/5.0 (Windows NT 10.0; Win64; x64) AppleWebKit/537.36 (KHTML, like Gecko) Chrome/86.0.4240.198 Safari/537.36"
172.18.0.1 - - [26/Nov/2020:14:04:41 +0000] "GET /favicon.ico HTTP/1.1" 200 318 "http://localhost:8010/api/documentation/swagger" "Mozilla/5.0 (Windows NT 10.0; Win64; x64) AppleWebKit/537.36 (KHTML, like Gecko) Chrome/86.0.4240.198 Safari/537.36"
172.18.0.1 - - [26/Nov/2020:14:10:00 +0000] "GET /api/documentation HTTP/1.1" 200 647 "-" "Mozilla/5.0 (Windows NT 10.0; Win64; x64) AppleWebKit/537.36 (KHTML, like Gecko) Chrome/86.0.4240.198 Safari/537.36"
172.18.0.1 - - [26/Nov/2020:14:10:00 +0000] "GET /css/swagger-ui.css HTTP/1.1" 304 0 "http://localhost:8010/api/documentation" "Mozilla/5.0 (Windows NT 10.0; Win64; x64) AppleWebKit/537.36 (KHTML, like Gecko) Chrome/86.0.4240.198 Safari/537.36"
172.18.0.1 - - [26/Nov/2020:14:10:00 +0000] "GET /js/swagger-ui-bundle.js HTTP/1.1" 304 0 "http://localhost:8010/api/documentation" "Mozilla/5.0 (Windows NT 10.0; Win64; x64) AppleWebKit/537.36 (KHTML, like Gecko) Chrome/86.0.4240.198 Safari/537.36"
172.18.0.1 - - [26/Nov/2020:14:10:00 +0000] "GET /js/swagger-ui-standalone-preset.js HTTP/1.1" 304 0 "http://localhost:8010/api/documentation" "Mozilla/5.0 (Windows NT 10.0; Win64; x64) AppleWebKit/537.36 (KHTML, like Gecko) Chrome/86.0.4240.198 Safari/537.36"
172.18.0.1 - - [26/Nov/2020:14:10:00 +0000] "GET /favicon.ico HTTP/1.1" 200 318 "http://localhost:8010/api/documentation" "Mozilla/5.0 (Windows NT 10.0; Win64; x64) AppleWebKit/537.36 (KHTML, like Gecko) Chrome/86.0.4240.198 Safari/537.36"
172.18.0.1 - - [26/Nov/2020:14:10:00 +0000] "GET /api/documentation/swagger HTTP/1.1" 200 254 "http://localhost:8010/api/documentation" "Mozilla/5.0 (Windows NT 10.0; Win64; x64) AppleWebKit/537.36 (KHTML, like Gecko) Chrome/86.0.4240.198 Safari/537.36"
172.18.0.1 - - [26/Nov/2020:14:10:30 +0000] "GET /api/documentation HTTP/1.1" 200 647 "-" "Mozilla/5.0 (Windows NT 10.0; Win64; x64) AppleWebKit/537.36 (KHTML, like Gecko) Chrome/86.0.4240.198 Safari/537.36"
172.18.0.1 - - [26/Nov/2020:14:10:30 +0000] "GET /api/documentation/swagger HTTP/1.1" 200 252 "http://localhost:8010/api/documentation" "Mozilla/5.0 (Windows NT 10.0; Win64; x64) AppleWebKit/537.36 (KHTML, like Gecko) Chrome/86.0.4240.198 Safari/537.36"
172.18.0.1 - - [26/Nov/2020:14:10:43 +0000] "GET /js/swagger-ui-bundle.js.map HTTP/1.1" 500 1484 "-" "Mozilla/5.0 (Windows NT 10.0; Win64; x64) AppleWebKit/537.36 (KHTML, like Gecko) Chrome/86.0.4240.198 Safari/537.36"
172.18.0.1 - - [26/Nov/2020:14:10:43 +0000] "GET /js/swagger-ui-standalone-preset.js.map HTTP/1.1" 500 1495 "-" "Mozilla/5.0 (Windows NT 10.0; Win64; x64) AppleWebKit/537.36 (KHTML, like Gecko) Chrome/86.0.4240.198 Safari/537.36"
172.18.0.1 - - [26/Nov/2020:14:10:43 +0000] "GET /css/swagger-ui.css.map HTTP/1.1" 500 1479 "-" "Mozilla/5.0 (Windows NT 10.0; Win64; x64) AppleWebKit/537.36 (KHTML, like Gecko) Chrome/86.0.4240.198 Safari/537.36"
172.18.0.1 - - [26/Nov/2020:14:10:49 +0000] "GET /api/documentation HTTP/1.1" 200 647 "-" "Mozilla/5.0 (Windows NT 10.0; Win64; x64) AppleWebKit/537.36 (KHTML, like Gecko) Chrome/86.0.4240.198 Safari/537.36"
172.18.0.1 - - [26/Nov/2020:14:10:49 +0000] "GET /js/swagger-ui-bundle.js.map HTTP/1.1" 500 1484 "-" "Mozilla/5.0 (Windows NT 10.0; Win64; x64) AppleWebKit/537.36 (KHTML, like Gecko) Chrome/86.0.4240.198 Safari/537.36"
172.18.0.1 - - [26/Nov/2020:14:10:49 +0000] "GET /js/swagger-ui-standalone-preset.js.map HTTP/1.1" 500 1495 "-" "Mozilla/5.0 (Windows NT 10.0; Win64; x64) AppleWebKit/537.36 (KHTML, like Gecko) Chrome/86.0.4240.198 Safari/537.36"
172.18.0.1 - - [26/Nov/2020:14:10:49 +0000] "GET /css/swagger-ui.css.map HTTP/1.1" 500 1479 "-" "Mozilla/5.0 (Windows NT 10.0; Win64; x64) AppleWebKit/537.36 (KHTML, like Gecko) Chrome/86.0.4240.198 Safari/537.36"
172.18.0.1 - - [26/Nov/2020:14:10:50 +0000] "GET /api/documentation/swagger HTTP/1.1" 200 252 "http://localhost:8010/api/documentation" "Mozilla/5.0 (Windows NT 10.0; Win64; x64) AppleWebKit/537.36 (KHTML, like Gecko) Chrome/86.0.4240.198 Safari/537.36"
172.18.0.1 - - [26/Nov/2020:14:15:49 +0000] "GET /api/documentation HTTP/1.1" 200 647 "-" "Mozilla/5.0 (Windows NT 10.0; Win64; x64) AppleWebKit/537.36 (KHTML, like Gecko) Chrome/86.0.4240.198 Safari/537.36"
172.18.0.1 - - [26/Nov/2020:14:15:49 +0000] "GET /css/swagger-ui.css HTTP/1.1" 304 0 "http://localhost:8010/api/documentation" "Mozilla/5.0 (Windows NT 10.0; Win64; x64) AppleWebKit/537.36 (KHTML, like Gecko) Chrome/86.0.4240.198 Safari/537.36"
172.18.0.1 - - [26/Nov/2020:14:15:49 +0000] "GET /js/swagger-ui-bundle.js HTTP/1.1" 304 0 "http://localhost:8010/api/documentation" "Mozilla/5.0 (Windows NT 10.0; Win64; x64) AppleWebKit/537.36 (KHTML, like Gecko) Chrome/86.0.4240.198 Safari/537.36"
172.18.0.1 - - [26/Nov/2020:14:15:49 +0000] "GET /js/swagger-ui-standalone-preset.js HTTP/1.1" 304 0 "http://localhost:8010/api/documentation" "Mozilla/5.0 (Windows NT 10.0; Win64; x64) AppleWebKit/537.36 (KHTML, like Gecko) Chrome/86.0.4240.198 Safari/537.36"
172.18.0.1 - - [26/Nov/2020:14:15:49 +0000] "GET /css/swagger-ui.css.map HTTP/1.1" 500 1479 "-" "Mozilla/5.0 (Windows NT 10.0; Win64; x64) AppleWebKit/537.36 (KHTML, like Gecko) Chrome/86.0.4240.198 Safari/537.36"
172.18.0.1 - - [26/Nov/2020:14:15:50 +0000] "GET /js/swagger-ui-standalone-preset.js.map HTTP/1.1" 500 1495 "-" "Mozilla/5.0 (Windows NT 10.0; Win64; x64) AppleWebKit/537.36 (KHTML, like Gecko) Chrome/86.0.4240.198 Safari/537.36"
172.18.0.1 - - [26/Nov/2020:14:15:50 +0000] "GET /js/swagger-ui-bundle.js.map HTTP/1.1" 500 1484 "-" "Mozilla/5.0 (Windows NT 10.0; Win64; x64) AppleWebKit/537.36 (KHTML, like Gecko) Chrome/86.0.4240.198 Safari/537.36"
172.18.0.1 - - [26/Nov/2020:14:15:50 +0000] "GET /api/documentation/swagger HTTP/1.1" 200 472 "http://localhost:8010/api/documentation" "Mozilla/5.0 (Windows NT 10.0; Win64; x64) AppleWebKit/537.36 (KHTML, like Gecko) Chrome/86.0.4240.198 Safari/537.36"
172.18.0.1 - - [26/Nov/2020:14:16:02 +0000] "POST /api/sprint/create HTTP/1.1" 200 91 "http://localhost:8010/api/documentation" "Mozilla/5.0 (Windows NT 10.0; Win64; x64) AppleWebKit/537.36 (KHTML, like Gecko) Chrome/86.0.4240.198 Safari/537.36"
172.18.0.1 - - [26/Nov/2020:14:17:18 +0000] "GET /api/documentation HTTP/1.1" 200 647 "-" "Mozilla/5.0 (Windows NT 10.0; Win64; x64) AppleWebKit/537.36 (KHTML, like Gecko) Chrome/86.0.4240.198 Safari/537.36"
172.18.0.1 - - [26/Nov/2020:14:17:18 +0000] "GET /css/swagger-ui.css.map HTTP/1.1" 500 1479 "-" "Mozilla/5.0 (Windows NT 10.0; Win64; x64) AppleWebKit/537.36 (KHTML, like Gecko) Chrome/86.0.4240.198 Safari/537.36"
172.18.0.1 - - [26/Nov/2020:14:17:18 +0000] "GET /js/swagger-ui-standalone-preset.js.map HTTP/1.1" 500 1495 "-" "Mozilla/5.0 (Windows NT 10.0; Win64; x64) AppleWebKit/537.36 (KHTML, like Gecko) Chrome/86.0.4240.198 Safari/537.36"
172.18.0.1 - - [26/Nov/2020:14:17:18 +0000] "GET /js/swagger-ui-bundle.js.map HTTP/1.1" 500 1484 "-" "Mozilla/5.0 (Windows NT 10.0; Win64; x64) AppleWebKit/537.36 (KHTML, like Gecko) Chrome/86.0.4240.198 Safari/537.36"
172.18.0.1 - - [26/Nov/2020:14:17:18 +0000] "GET /api/documentation/swagger HTTP/1.1" 200 474 "http://localhost:8010/api/documentation" "Mozilla/5.0 (Windows NT 10.0; Win64; x64) AppleWebKit/537.36 (KHTML, like Gecko) Chrome/86.0.4240.198 Safari/537.36"
172.18.0.1 - - [26/Nov/2020:14:17:21 +0000] "POST /api/sprint/create HTTP/1.1" 200 24 "http://localhost:8010/api/documentation" "Mozilla/5.0 (Windows NT 10.0; Win64; x64) AppleWebKit/537.36 (KHTML, like Gecko) Chrome/86.0.4240.198 Safari/537.36"
172.18.0.1 - - [26/Nov/2020:14:20:50 +0000] "GET /api/documentation HTTP/1.1" 200 647 "-" "Mozilla/5.0 (Windows NT 10.0; Win64; x64) AppleWebKit/537.36 (KHTML, like Gecko) Chrome/86.0.4240.198 Safari/537.36"
172.18.0.1 - - [26/Nov/2020:14:20:50 +0000] "GET /css/swagger-ui.css HTTP/1.1" 304 0 "http://localhost:8010/api/documentation" "Mozilla/5.0 (Windows NT 10.0; Win64; x64) AppleWebKit/537.36 (KHTML, like Gecko) Chrome/86.0.4240.198 Safari/537.36"
172.18.0.1 - - [26/Nov/2020:14:20:50 +0000] "GET /js/swagger-ui-bundle.js HTTP/1.1" 304 0 "http://localhost:8010/api/documentation" "Mozilla/5.0 (Windows NT 10.0; Win64; x64) AppleWebKit/537.36 (KHTML, like Gecko) Chrome/86.0.4240.198 Safari/537.36"
172.18.0.1 - - [26/Nov/2020:14:20:50 +0000] "GET /js/swagger-ui-standalone-preset.js HTTP/1.1" 304 0 "http://localhost:8010/api/documentation" "Mozilla/5.0 (Windows NT 10.0; Win64; x64) AppleWebKit/537.36 (KHTML, like Gecko) Chrome/86.0.4240.198 Safari/537.36"
172.18.0.1 - - [26/Nov/2020:14:20:50 +0000] "GET /css/swagger-ui.css.map HTTP/1.1" 500 1479 "-" "Mozilla/5.0 (Windows NT 10.0; Win64; x64) AppleWebKit/537.36 (KHTML, like Gecko) Chrome/86.0.4240.198 Safari/537.36"
172.18.0.1 - - [26/Nov/2020:14:20:50 +0000] "GET /js/swagger-ui-bundle.js.map HTTP/1.1" 500 1484 "-" "Mozilla/5.0 (Windows NT 10.0; Win64; x64) AppleWebKit/537.36 (KHTML, like Gecko) Chrome/86.0.4240.198 Safari/537.36"
172.18.0.1 - - [26/Nov/2020:14:20:50 +0000] "GET /js/swagger-ui-standalone-preset.js.map HTTP/1.1" 500 1495 "-" "Mozilla/5.0 (Windows NT 10.0; Win64; x64) AppleWebKit/537.36 (KHTML, like Gecko) Chrome/86.0.4240.198 Safari/537.36"
172.18.0.1 - - [26/Nov/2020:14:20:50 +0000] "GET /api/documentation/swagger HTTP/1.1" 200 566 "http://localhost:8010/api/documentation" "Mozilla/5.0 (Windows NT 10.0; Win64; x64) AppleWebKit/537.36 (KHTML, like Gecko) Chrome/86.0.4240.198 Safari/537.36"
172.18.0.1 - - [26/Nov/2020:14:29:49 +0000] "GET /api/documentation HTTP/1.1" 200 647 "-" "Mozilla/5.0 (Windows NT 10.0; Win64; x64) AppleWebKit/537.36 (KHTML, like Gecko) Chrome/86.0.4240.198 Safari/537.36"
172.18.0.1 - - [26/Nov/2020:14:29:49 +0000] "GET /css/swagger-ui.css HTTP/1.1" 304 0 "http://localhost:8010/api/documentation" "Mozilla/5.0 (Windows NT 10.0; Win64; x64) AppleWebKit/537.36 (KHTML, like Gecko) Chrome/86.0.4240.198 Safari/537.36"
172.18.0.1 - - [26/Nov/2020:14:29:49 +0000] "GET /js/swagger-ui-bundle.js HTTP/1.1" 304 0 "http://localhost:8010/api/documentation" "Mozilla/5.0 (Windows NT 10.0; Win64; x64) AppleWebKit/537.36 (KHTML, like Gecko) Chrome/86.0.4240.198 Safari/537.36"
172.18.0.1 - - [26/Nov/2020:14:29:49 +0000] "GET /js/swagger-ui-standalone-preset.js HTTP/1.1" 304 0 "http://localhost:8010/api/documentation" "Mozilla/5.0 (Windows NT 10.0; Win64; x64) AppleWebKit/537.36 (KHTML, like Gecko) Chrome/86.0.4240.198 Safari/537.36"
172.18.0.1 - - [26/Nov/2020:14:29:49 +0000] "GET /css/swagger-ui.css.map HTTP/1.1" 500 1479 "-" "Mozilla/5.0 (Windows NT 10.0; Win64; x64) AppleWebKit/537.36 (KHTML, like Gecko) Chrome/86.0.4240.198 Safari/537.36"
172.18.0.1 - - [26/Nov/2020:14:29:50 +0000] "GET /js/swagger-ui-bundle.js.map HTTP/1.1" 500 1484 "-" "Mozilla/5.0 (Windows NT 10.0; Win64; x64) AppleWebKit/537.36 (KHTML, like Gecko) Chrome/86.0.4240.198 Safari/537.36"
172.18.0.1 - - [26/Nov/2020:14:29:50 +0000] "GET /js/swagger-ui-standalone-preset.js.map HTTP/1.1" 500 1495 "-" "Mozilla/5.0 (Windows NT 10.0; Win64; x64) AppleWebKit/537.36 (KHTML, like Gecko) Chrome/86.0.4240.198 Safari/537.36"
172.18.0.1 - - [26/Nov/2020:14:29:50 +0000] "GET /api/documentation/swagger HTTP/1.1" 200 702 "http://localhost:8010/api/documentation" "Mozilla/5.0 (Windows NT 10.0; Win64; x64) AppleWebKit/537.36 (KHTML, like Gecko) Chrome/86.0.4240.198 Safari/537.36"
172.18.0.1 - - [26/Nov/2020:14:32:32 +0000] "GET /api/documentation HTTP/1.1" 200 647 "-" "Mozilla/5.0 (Windows NT 10.0; Win64; x64) AppleWebKit/537.36 (KHTML, like Gecko) Chrome/86.0.4240.198 Safari/537.36"
172.18.0.1 - - [26/Nov/2020:14:32:32 +0000] "GET /css/swagger-ui.css.map HTTP/1.1" 500 1479 "-" "Mozilla/5.0 (Windows NT 10.0; Win64; x64) AppleWebKit/537.36 (KHTML, like Gecko) Chrome/86.0.4240.198 Safari/537.36"
172.18.0.1 - - [26/Nov/2020:14:32:32 +0000] "GET /js/swagger-ui-bundle.js.map HTTP/1.1" 500 1484 "-" "Mozilla/5.0 (Windows NT 10.0; Win64; x64) AppleWebKit/537.36 (KHTML, like Gecko) Chrome/86.0.4240.198 Safari/537.36"
172.18.0.1 - - [26/Nov/2020:14:32:32 +0000] "GET /js/swagger-ui-standalone-preset.js.map HTTP/1.1" 500 1495 "-" "Mozilla/5.0 (Windows NT 10.0; Win64; x64) AppleWebKit/537.36 (KHTML, like Gecko) Chrome/86.0.4240.198 Safari/537.36"
172.18.0.1 - - [26/Nov/2020:14:32:32 +0000] "GET /api/documentation/swagger HTTP/1.1" 200 803 "http://localhost:8010/api/documentation" "Mozilla/5.0 (Windows NT 10.0; Win64; x64) AppleWebKit/537.36 (KHTML, like Gecko) Chrome/86.0.4240.198 Safari/537.36"
172.18.0.1 - - [26/Nov/2020:14:36:39 +0000] "POST /api/sprints HTTP/1.1" 200 91 "http://localhost:8010/api/documentation" "Mozilla/5.0 (Windows NT 10.0; Win64; x64) AppleWebKit/537.36 (KHTML, like Gecko) Chrome/86.0.4240.198 Safari/537.36"
172.18.0.1 - - [26/Nov/2020:14:41:26 +0000] "GET /api/documentation HTTP/1.1" 200 647 "-" "Mozilla/5.0 (Windows NT 10.0; Win64; x64) AppleWebKit/537.36 (KHTML, like Gecko) Chrome/86.0.4240.198 Safari/537.36"
172.18.0.1 - - [26/Nov/2020:14:41:26 +0000] "GET /css/swagger-ui.css HTTP/1.1" 304 0 "http://localhost:8010/api/documentation" "Mozilla/5.0 (Windows NT 10.0; Win64; x64) AppleWebKit/537.36 (KHTML, like Gecko) Chrome/86.0.4240.198 Safari/537.36"
172.18.0.1 - - [26/Nov/2020:14:41:26 +0000] "GET /js/swagger-ui-bundle.js HTTP/1.1" 304 0 "http://localhost:8010/api/documentation" "Mozilla/5.0 (Windows NT 10.0; Win64; x64) AppleWebKit/537.36 (KHTML, like Gecko) Chrome/86.0.4240.198 Safari/537.36"
172.18.0.1 - - [26/Nov/2020:14:41:26 +0000] "GET /js/swagger-ui-standalone-preset.js HTTP/1.1" 304 0 "http://localhost:8010/api/documentation" "Mozilla/5.0 (Windows NT 10.0; Win64; x64) AppleWebKit/537.36 (KHTML, like Gecko) Chrome/86.0.4240.198 Safari/537.36"
172.18.0.1 - - [26/Nov/2020:14:41:26 +0000] "GET /api/documentation/swagger HTTP/1.1" 500 97265 "http://localhost:8010/api/documentation" "Mozilla/5.0 (Windows NT 10.0; Win64; x64) AppleWebKit/537.36 (KHTML, like Gecko) Chrome/86.0.4240.198 Safari/537.36"
172.18.0.1 - - [26/Nov/2020:14:41:39 +0000] "GET /api/documentation/swagger HTTP/1.1" 500 97264 "-" "Mozilla/5.0 (Windows NT 10.0; Win64; x64) AppleWebKit/537.36 (KHTML, like Gecko) Chrome/86.0.4240.198 Safari/537.36"
172.18.0.1 - - [26/Nov/2020:14:41:39 +0000] "GET /favicon.ico HTTP/1.1" 200 318 "http://localhost:8010/api/documentation/swagger" "Mozilla/5.0 (Windows NT 10.0; Win64; x64) AppleWebKit/537.36 (KHTML, like Gecko) Chrome/86.0.4240.198 Safari/537.36"
172.18.0.1 - - [26/Nov/2020:14:42:05 +0000] "GET /api/documentation/swagger HTTP/1.1" 200 1272 "-" "Mozilla/5.0 (Windows NT 10.0; Win64; x64) AppleWebKit/537.36 (KHTML, like Gecko) Chrome/86.0.4240.198 Safari/537.36"
172.18.0.1 - - [26/Nov/2020:14:42:05 +0000] "GET /favicon.ico HTTP/1.1" 200 318 "http://localhost:8010/api/documentation/swagger" "Mozilla/5.0 (Windows NT 10.0; Win64; x64) AppleWebKit/537.36 (KHTML, like Gecko) Chrome/86.0.4240.198 Safari/537.36"
172.18.0.1 - - [26/Nov/2020:14:42:06 +0000] "GET /api/documentation HTTP/1.1" 200 647 "-" "Mozilla/5.0 (Windows NT 10.0; Win64; x64) AppleWebKit/537.36 (KHTML, like Gecko) Chrome/86.0.4240.198 Safari/537.36"
172.18.0.1 - - [26/Nov/2020:14:42:07 +0000] "GET /api/documentation/swagger HTTP/1.1" 200 1272 "http://localhost:8010/api/documentation" "Mozilla/5.0 (Windows NT 10.0; Win64; x64) AppleWebKit/537.36 (KHTML, like Gecko) Chrome/86.0.4240.198 Safari/537.36"
172.18.0.1 - - [26/Nov/2020:14:44:19 +0000] "GET /api/documentation HTTP/1.1" 200 647 "-" "Mozilla/5.0 (Windows NT 10.0; Win64; x64) AppleWebKit/537.36 (KHTML, like Gecko) Chrome/86.0.4240.198 Safari/537.36"
172.18.0.1 - - [26/Nov/2020:14:44:19 +0000] "GET /api/documentation/swagger HTTP/1.1" 200 1271 "http://localhost:8010/api/documentation" "Mozilla/5.0 (Windows NT 10.0; Win64; x64) AppleWebKit/537.36 (KHTML, like Gecko) Chrome/86.0.4240.198 Safari/537.36"
172.18.0.1 - - [26/Nov/2020:14:44:27 +0000] "POST /api/sprints HTTP/1.1" 400 104 "http://localhost:8010/api/documentation" "Mozilla/5.0 (Windows NT 10.0; Win64; x64) AppleWebKit/537.36 (KHTML, like Gecko) Chrome/86.0.4240.198 Safari/537.36"
172.18.0.1 - - [26/Nov/2020:14:45:29 +0000] "POST /api/sprints HTTP/1.1" 400 104 "http://localhost:8010/api/documentation" "Mozilla/5.0 (Windows NT 10.0; Win64; x64) AppleWebKit/537.36 (KHTML, like Gecko) Chrome/86.0.4240.198 Safari/537.36"
172.18.0.1 - - [14/Jan/2021:16:17:40 +0000] "POST /api/sprints/add-task HTTP/1.1" 200 154 "-" "PostmanRuntime/7.26.5"
172.18.0.1 - - [14/Jan/2021:16:18:17 +0000] "POST /api/tasks HTTP/1.1" 200 130 "-" "PostmanRuntime/7.26.5"
172.18.0.1 - - [14/Jan/2021:16:18:24 +0000] "GET /api/tasks HTTP/1.1" 200 12 "-" "PostmanRuntime/7.26.5"
172.18.0.1 - - [14/Jan/2021:16:19:07 +0000] "POST /api/tasks HTTP/1.1" 200 130 "-" "PostmanRuntime/7.26.5"
172.18.0.1 - - [14/Jan/2021:16:19:12 +0000] "POST /api/tasks HTTP/1.1" 200 25 "-" "PostmanRuntime/7.26.5"
172.18.0.1 - - [14/Jan/2021:16:19:20 +0000] "GET /api/tasks HTTP/1.1" 200 190 "-" "PostmanRuntime/7.26.5"
172.18.0.1 - - [14/Jan/2021:16:20:59 +0000] "GET /api/documentation HTTP/1.1" 200 647 "-" "Mozilla/5.0 (Windows NT 10.0; Win64; x64) AppleWebKit/537.36 (KHTML, like Gecko) Chrome/87.0.4280.141 Safari/537.36"
172.18.0.1 - - [14/Jan/2021:16:20:59 +0000] "GET /css/swagger-ui.css HTTP/1.1" 200 143074 "http://localhost:8010/api/documentation" "Mozilla/5.0 (Windows NT 10.0; Win64; x64) AppleWebKit/537.36 (KHTML, like Gecko) Chrome/87.0.4280.141 Safari/537.36"
172.18.0.1 - - [14/Jan/2021:16:20:59 +0000] "GET /js/swagger-ui-standalone-preset.js HTTP/1.1" 200 329478 "http://localhost:8010/api/documentation" "Mozilla/5.0 (Windows NT 10.0; Win64; x64) AppleWebKit/537.36 (KHTML, like Gecko) Chrome/87.0.4280.141 Safari/537.36"
172.18.0.1 - - [14/Jan/2021:16:20:59 +0000] "GET /js/swagger-ui-bundle.js HTTP/1.1" 200 1038437 "http://localhost:8010/api/documentation" "Mozilla/5.0 (Windows NT 10.0; Win64; x64) AppleWebKit/537.36 (KHTML, like Gecko) Chrome/87.0.4280.141 Safari/537.36"
172.18.0.1 - - [14/Jan/2021:16:21:00 +0000] "GET /favicon.ico HTTP/1.1" 200 318 "http://localhost:8010/api/documentation" "Mozilla/5.0 (Windows NT 10.0; Win64; x64) AppleWebKit/537.36 (KHTML, like Gecko) Chrome/87.0.4280.141 Safari/537.36"
172.18.0.1 - - [14/Jan/2021:16:21:00 +0000] "GET /api/documentation/swagger HTTP/1.1" 200 1271 "http://localhost:8010/api/documentation" "Mozilla/5.0 (Windows NT 10.0; Win64; x64) AppleWebKit/537.36 (KHTML, like Gecko) Chrome/87.0.4280.141 Safari/537.36"
172.18.0.1 - - [14/Jan/2021:16:21:10 +0000] "GET /api/ HTTP/1.1" 500 1447 "-" "Mozilla/5.0 (Windows NT 10.0; Win64; x64) AppleWebKit/537.36 (KHTML, like Gecko) Chrome/87.0.4280.141 Safari/537.36"
172.18.0.1 - - [14/Jan/2021:16:21:20 +0000] "GET /api/documentation HTTP/1.1" 200 647 "-" "Mozilla/5.0 (Windows NT 10.0; Win64; x64) AppleWebKit/537.36 (KHTML, like Gecko) Chrome/87.0.4280.141 Safari/537.36"
172.18.0.1 - - [14/Jan/2021:16:21:20 +0000] "GET /api/documentation/swagger HTTP/1.1" 200 1271 "http://localhost:8010/api/documentation" "Mozilla/5.0 (Windows NT 10.0; Win64; x64) AppleWebKit/537.36 (KHTML, like Gecko) Chrome/87.0.4280.141 Safari/537.36"
172.18.0.1 - - [14/Jan/2021:16:21:28 +0000] "GET /api/documentation/swagger HTTP/1.1" 200 1271 "-" "Mozilla/5.0 (Windows NT 10.0; Win64; x64) AppleWebKit/537.36 (KHTML, like Gecko) Chrome/87.0.4280.141 Safari/537.36"
172.18.0.1 - - [14/Jan/2021:16:21:35 +0000] "GET /api/documentation HTTP/1.1" 200 647 "-" "Mozilla/5.0 (Windows NT 10.0; Win64; x64) AppleWebKit/537.36 (KHTML, like Gecko) Chrome/87.0.4280.141 Safari/537.36"
172.18.0.1 - - [14/Jan/2021:16:21:35 +0000] "GET /api/documentation/swagger HTTP/1.1" 200 1271 "http://localhost:8010/api/documentation" "Mozilla/5.0 (Windows NT 10.0; Win64; x64) AppleWebKit/537.36 (KHTML, like Gecko) Chrome/87.0.4280.141 Safari/537.36"
172.18.0.1 - - [15/Jan/2021:12:26:33 +0000] "GET /api/documentation HTTP/1.1" 200 647 "-" "Mozilla/5.0 (Windows NT 10.0; Win64; x64) AppleWebKit/537.36 (KHTML, like Gecko) Chrome/87.0.4280.141 Safari/537.36"
172.18.0.1 - - [15/Jan/2021:12:26:33 +0000] "GET /api/documentation/swagger HTTP/1.1" 200 1271 "http://localhost:8010/api/documentation" "Mozilla/5.0 (Windows NT 10.0; Win64; x64) AppleWebKit/537.36 (KHTML, like Gecko) Chrome/87.0.4280.141 Safari/537.36"
172.18.0.1 - - [15/Jan/2021:12:26:37 +0000] "GET /api/tasks HTTP/1.1" 200 190 "http://localhost:8010/api/documentation" "Mozilla/5.0 (Windows NT 10.0; Win64; x64) AppleWebKit/537.36 (KHTML, like Gecko) Chrome/87.0.4280.141 Safari/537.36"
172.18.0.1 - - [15/Jan/2021:12:31:42 +0000] "POST /api/sprints HTTP/1.1" 400 95 "http://localhost:8010/api/documentation" "Mozilla/5.0 (Windows NT 10.0; Win64; x64) AppleWebKit/537.36 (KHTML, like Gecko) Chrome/87.0.4280.141 Safari/537.36"
172.18.0.1 - - [15/Jan/2021:12:31:57 +0000] "POST /api/sprints HTTP/1.1" 200 24 "http://localhost:8010/api/documentation" "Mozilla/5.0 (Windows NT 10.0; Win64; x64) AppleWebKit/537.36 (KHTML, like Gecko) Chrome/87.0.4280.141 Safari/537.36"
172.18.0.1 - - [15/Jan/2021:12:36:13 +0000] "GET /api/spints/start HTTP/1.1" 500 1473 "-" "PostmanRuntime/7.26.8"
172.18.0.1 - - [15/Jan/2021:12:36:22 +0000] "POST /api/spints/start HTTP/1.1" 500 1473 "-" "PostmanRuntime/7.26.8"
172.18.0.1 - - [15/Jan/2021:12:36:52 +0000] "POST /api/spints/start HTTP/1.1" 500 1473 "-" "PostmanRuntime/7.26.8"
172.18.0.1 - - [15/Jan/2021:12:36:59 +0000] "GET /api/tasks HTTP/1.1" 200 190 "-" "PostmanRuntime/7.26.8"
172.18.0.1 - - [15/Jan/2021:12:37:11 +0000] "POST /api/sprints/add-task HTTP/1.1" 200 154 "-" "PostmanRuntime/7.26.8"
172.18.0.1 - - [15/Jan/2021:12:37:26 +0000] "POST /api/sprints/close HTTP/1.1" 200 52 "-" "PostmanRuntime/7.26.8"
172.18.0.1 - - [15/Jan/2021:12:39:50 +0000] "POST /api/sprints/close HTTP/1.1" 200 66 "-" "PostmanRuntime/7.26.8"
172.18.0.1 - - [15/Jan/2021:12:40:57 +0000] "GET /api/documentation HTTP/1.1" 200 647 "-" "Mozilla/5.0 (Windows NT 10.0; Win64; x64) AppleWebKit/537.36 (KHTML, like Gecko) Chrome/87.0.4280.141 Safari/537.36"
172.18.0.1 - - [15/Jan/2021:12:40:57 +0000] "GET /api/documentation/swagger HTTP/1.1" 200 1409 "http://localhost:8010/api/documentation" "Mozilla/5.0 (Windows NT 10.0; Win64; x64) AppleWebKit/537.36 (KHTML, like Gecko) Chrome/87.0.4280.141 Safari/537.36"
172.18.0.1 - - [15/Jan/2021:12:41:10 +0000] "POST /api/sprints/start HTTP/1.1" 200 65 "http://localhost:8010/api/documentation" "Mozilla/5.0 (Windows NT 10.0; Win64; x64) AppleWebKit/537.36 (KHTML, like Gecko) Chrome/87.0.4280.141 Safari/537.36"
172.18.0.1 - - [15/Jan/2021:12:41:11 +0000] "POST /api/sprints/start HTTP/1.1" 200 65 "http://localhost:8010/api/documentation" "Mozilla/5.0 (Windows NT 10.0; Win64; x64) AppleWebKit/537.36 (KHTML, like Gecko) Chrome/87.0.4280.141 Safari/537.36"
172.18.0.1 - - [15/Jan/2021:12:41:43 +0000] "POST /api/sprints/close HTTP/1.1" 200 48 "-" "PostmanRuntime/7.26.8"
172.18.0.1 - - [15/Jan/2021:12:41:48 +0000] "POST /api/sprints/start HTTP/1.1" 200 65 "http://localhost:8010/api/documentation" "Mozilla/5.0 (Windows NT 10.0; Win64; x64) AppleWebKit/537.36 (KHTML, like Gecko) Chrome/87.0.4280.141 Safari/537.36"
172.18.0.1 - - [15/Jan/2021:12:41:51 +0000] "POST /api/sprints/start HTTP/1.1" 200 65 "http://localhost:8010/api/documentation" "Mozilla/5.0 (Windows NT 10.0; Win64; x64) AppleWebKit/537.36 (KHTML, like Gecko) Chrome/87.0.4280.141 Safari/537.36"
172.18.0.1 - - [15/Jan/2021:12:42:05 +0000] "POST /api/sprints/close HTTP/1.1" 200 52 "-" "PostmanRuntime/7.26.8"
172.18.0.1 - - [15/Jan/2021:12:42:09 +0000] "GET /api/documentation HTTP/1.1" 200 647 "-" "Mozilla/5.0 (Windows NT 10.0; Win64; x64) AppleWebKit/537.36 (KHTML, like Gecko) Chrome/87.0.4280.141 Safari/537.36"
172.18.0.1 - - [15/Jan/2021:12:42:09 +0000] "GET /css/swagger-ui.css HTTP/1.1" 200 143074 "http://localhost:8010/api/documentation" "Mozilla/5.0 (Windows NT 10.0; Win64; x64) AppleWebKit/537.36 (KHTML, like Gecko) Chrome/87.0.4280.141 Safari/537.36"
172.18.0.1 - - [15/Jan/2021:12:42:09 +0000] "GET /js/swagger-ui-bundle.js HTTP/1.1" 200 1038437 "http://localhost:8010/api/documentation" "Mozilla/5.0 (Windows NT 10.0; Win64; x64) AppleWebKit/537.36 (KHTML, like Gecko) Chrome/87.0.4280.141 Safari/537.36"
172.18.0.1 - - [15/Jan/2021:12:42:09 +0000] "GET /js/swagger-ui-standalone-preset.js HTTP/1.1" 200 329478 "http://localhost:8010/api/documentation" "Mozilla/5.0 (Windows NT 10.0; Win64; x64) AppleWebKit/537.36 (KHTML, like Gecko) Chrome/87.0.4280.141 Safari/537.36"
172.18.0.1 - - [15/Jan/2021:12:42:09 +0000] "GET /api/documentation/swagger HTTP/1.1" 200 1409 "http://localhost:8010/api/documentation" "Mozilla/5.0 (Windows NT 10.0; Win64; x64) AppleWebKit/537.36 (KHTML, like Gecko) Chrome/87.0.4280.141 Safari/537.36"
172.18.0.1 - - [15/Jan/2021:12:42:15 +0000] "POST /api/sprints/start HTTP/1.1" 200 65 "http://localhost:8010/api/documentation" "Mozilla/5.0 (Windows NT 10.0; Win64; x64) AppleWebKit/537.36 (KHTML, like Gecko) Chrome/87.0.4280.141 Safari/537.36"
172.18.0.1 - - [15/Jan/2021:12:43:00 +0000] "POST /api/sprints/start HTTP/1.1" 200 65 "http://localhost:8010/api/documentation" "Mozilla/5.0 (Windows NT 10.0; Win64; x64) AppleWebKit/537.36 (KHTML, like Gecko) Chrome/87.0.4280.141 Safari/537.36"
172.18.0.1 - - [15/Jan/2021:12:43:35 +0000] "POST /api/sprints/start HTTP/1.1" 200 65 "http://localhost:8010/api/documentation" "Mozilla/5.0 (Windows NT 10.0; Win64; x64) AppleWebKit/537.36 (KHTML, like Gecko) Chrome/87.0.4280.141 Safari/537.36"
172.18.0.1 - - [15/Jan/2021:12:43:40 +0000] "POST /api/sprints/start HTTP/1.1" 500 69552 "http://localhost:8010/api/documentation" "Mozilla/5.0 (Windows NT 10.0; Win64; x64) AppleWebKit/537.36 (KHTML, like Gecko) Chrome/87.0.4280.141 Safari/537.36"
172.18.0.1 - - [15/Jan/2021:12:43:55 +0000] "POST /api/sprints/close HTTP/1.1" 500 69394 "-" "PostmanRuntime/7.26.8"
172.18.0.1 - - [15/Jan/2021:12:44:43 +0000] "POST /api/sprints/close HTTP/1.1" 200 52 "-" "PostmanRuntime/7.26.8"
172.18.0.1 - - [15/Jan/2021:12:44:47 +0000] "POST /api/sprints/close HTTP/1.1" 200 66 "-" "PostmanRuntime/7.26.8"
172.18.0.1 - - [15/Jan/2021:12:44:51 +0000] "POST /api/sprints/close HTTP/1.1" 200 52 "-" "PostmanRuntime/7.26.8"
172.18.0.1 - - [15/Jan/2021:12:44:54 +0000] "POST /api/sprints/close HTTP/1.1" 500 69394 "-" "PostmanRuntime/7.26.8"
172.18.0.1 - - [15/Jan/2021:12:49:44 +0000] "POST /api/sprints/start HTTP/1.1" 500 69538 "-" "PostmanRuntime/7.26.8"
172.18.0.1 - - [15/Jan/2021:12:50:24 +0000] "POST /api/sprints/start HTTP/1.1" 200 36 "-" "PostmanRuntime/7.26.8"
172.18.0.1 - - [15/Jan/2021:12:50:44 +0000] "POST /api/sprints/start HTTP/1.1" 500 69538 "-" "PostmanRuntime/7.26.8"
172.18.0.1 - - [15/Jan/2021:12:50:53 +0000] "POST /api/sprints/start HTTP/1.1" 500 69537 "-" "PostmanRuntime/7.26.8"
172.18.0.1 - - [15/Jan/2021:12:50:57 +0000] "POST /api/sprints/start HTTP/1.1" 200 67 "-" "PostmanRuntime/7.26.8"
172.18.0.1 - - [15/Jan/2021:12:51:23 +0000] "GET /api/documentation HTTP/1.1" 200 647 "-" "Mozilla/5.0 (Windows NT 10.0; Win64; x64) AppleWebKit/537.36 (KHTML, like Gecko) Chrome/87.0.4280.141 Safari/537.36"
172.18.0.1 - - [15/Jan/2021:12:51:23 +0000] "GET /api/documentation/swagger HTTP/1.1" 200 1409 "http://localhost:8010/api/documentation" "Mozilla/5.0 (Windows NT 10.0; Win64; x64) AppleWebKit/537.36 (KHTML, like Gecko) Chrome/87.0.4280.141 Safari/537.36"
172.18.0.1 - - [15/Jan/2021:12:51:26 +0000] "POST /api/sprints/start HTTP/1.1" 200 65 "http://localhost:8010/api/documentation" "Mozilla/5.0 (Windows NT 10.0; Win64; x64) AppleWebKit/537.36 (KHTML, like Gecko) Chrome/87.0.4280.141 Safari/537.36"
172.18.0.1 - - [15/Jan/2021:12:51:32 +0000] "POST /api/sprints/start HTTP/1.1" 200 65 "http://localhost:8010/api/documentation" "Mozilla/5.0 (Windows NT 10.0; Win64; x64) AppleWebKit/537.36 (KHTML, like Gecko) Chrome/87.0.4280.141 Safari/537.36"
172.18.0.1 - - [15/Jan/2021:12:51:33 +0000] "POST /api/sprints/start HTTP/1.1" 200 65 "http://localhost:8010/api/documentation" "Mozilla/5.0 (Windows NT 10.0; Win64; x64) AppleWebKit/537.36 (KHTML, like Gecko) Chrome/87.0.4280.141 Safari/537.36"
172.18.0.1 - - [15/Jan/2021:12:52:01 +0000] "POST /api/sprints/start HTTP/1.1" 200 65 "-" "PostmanRuntime/7.26.8"
172.18.0.1 - - [15/Jan/2021:12:52:40 +0000] "POST /api/sprints/start HTTP/1.1" 200 31 "-" "PostmanRuntime/7.26.8"
172.18.0.1 - - [15/Jan/2021:12:52:53 +0000] "GET /api/documentation HTTP/1.1" 200 647 "-" "Mozilla/5.0 (Windows NT 10.0; Win64; x64) AppleWebKit/537.36 (KHTML, like Gecko) Chrome/87.0.4280.141 Safari/537.36"
172.18.0.1 - - [15/Jan/2021:12:52:53 +0000] "GET /api/documentation/swagger HTTP/1.1" 200 1409 "http://localhost:8010/api/documentation" "Mozilla/5.0 (Windows NT 10.0; Win64; x64) AppleWebKit/537.36 (KHTML, like Gecko) Chrome/87.0.4280.141 Safari/537.36"
172.18.0.1 - - [15/Jan/2021:12:52:56 +0000] "POST /api/sprints/start HTTP/1.1" 200 54 "http://localhost:8010/api/documentation" "Mozilla/5.0 (Windows NT 10.0; Win64; x64) AppleWebKit/537.36 (KHTML, like Gecko) Chrome/87.0.4280.141 Safari/537.36"
172.18.0.1 - - [15/Jan/2021:12:52:57 +0000] "POST /api/sprints/start HTTP/1.1" 200 54 "http://localhost:8010/api/documentation" "Mozilla/5.0 (Windows NT 10.0; Win64; x64) AppleWebKit/537.36 (KHTML, like Gecko) Chrome/87.0.4280.141 Safari/537.36"
172.18.0.1 - - [15/Jan/2021:12:53:03 +0000] "POST /api/sprints/start HTTP/1.1" 200 54 "-" "PostmanRuntime/7.26.8"
172.18.0.1 - - [15/Jan/2021:12:53:21 +0000] "POST /api/sprints/start HTTP/1.1" 500 69714 "-" "PostmanRuntime/7.26.8"
172.18.0.1 - - [15/Jan/2021:12:53:34 +0000] "POST /api/sprints/start HTTP/1.1" 500 69663 "-" "PostmanRuntime/7.26.8"
172.18.0.1 - - [15/Jan/2021:12:54:03 +0000] "POST /api/sprints/start HTTP/1.1" 200 67 "-" "PostmanRuntime/7.26.8"
172.18.0.1 - - [15/Jan/2021:12:54:24 +0000] "POST /api/sprints/start HTTP/1.1" 200 54 "http://localhost:8010/api/documentation" "Mozilla/5.0 (Windows NT 10.0; Win64; x64) AppleWebKit/537.36 (KHTML, like Gecko) Chrome/87.0.4280.141 Safari/537.36"
172.18.0.1 - - [15/Jan/2021:12:54:34 +0000] "POST /api/sprints/start HTTP/1.1" 200 65 "http://localhost:8010/api/documentation" "Mozilla/5.0 (Windows NT 10.0; Win64; x64) AppleWebKit/537.36 (KHTML, like Gecko) Chrome/87.0.4280.141 Safari/537.36"
172.18.0.1 - - [15/Jan/2021:12:54:45 +0000] "POST /api/sprints/start HTTP/1.1" 200 65 "http://localhost:8010/api/documentation" "Mozilla/5.0 (Windows NT 10.0; Win64; x64) AppleWebKit/537.36 (KHTML, like Gecko) Chrome/87.0.4280.141 Safari/537.36"
172.18.0.1 - - [15/Jan/2021:12:54:47 +0000] "POST /api/sprints/start HTTP/1.1" 200 65 "http://localhost:8010/api/documentation" "Mozilla/5.0 (Windows NT 10.0; Win64; x64) AppleWebKit/537.36 (KHTML, like Gecko) Chrome/87.0.4280.141 Safari/537.36"
172.18.0.1 - - [15/Jan/2021:12:54:48 +0000] "POST /api/sprints/start HTTP/1.1" 200 65 "http://localhost:8010/api/documentation" "Mozilla/5.0 (Windows NT 10.0; Win64; x64) AppleWebKit/537.36 (KHTML, like Gecko) Chrome/87.0.4280.141 Safari/537.36"
172.18.0.1 - - [15/Jan/2021:12:54:48 +0000] "POST /api/sprints/start HTTP/1.1" 200 65 "http://localhost:8010/api/documentation" "Mozilla/5.0 (Windows NT 10.0; Win64; x64) AppleWebKit/537.36 (KHTML, like Gecko) Chrome/87.0.4280.141 Safari/537.36"
172.18.0.1 - - [15/Jan/2021:12:54:49 +0000] "GET /api/documentation HTTP/1.1" 200 647 "-" "Mozilla/5.0 (Windows NT 10.0; Win64; x64) AppleWebKit/537.36 (KHTML, like Gecko) Chrome/87.0.4280.141 Safari/537.36"
172.18.0.1 - - [15/Jan/2021:12:54:49 +0000] "GET /api/documentation/swagger HTTP/1.1" 200 1409 "http://localhost:8010/api/documentation" "Mozilla/5.0 (Windows NT 10.0; Win64; x64) AppleWebKit/537.36 (KHTML, like Gecko) Chrome/87.0.4280.141 Safari/537.36"
172.18.0.1 - - [15/Jan/2021:12:54:55 +0000] "POST /api/sprints/start HTTP/1.1" 200 65 "http://localhost:8010/api/documentation" "Mozilla/5.0 (Windows NT 10.0; Win64; x64) AppleWebKit/537.36 (KHTML, like Gecko) Chrome/87.0.4280.141 Safari/537.36"
172.18.0.1 - - [15/Jan/2021:12:54:56 +0000] "POST /api/sprints/start HTTP/1.1" 200 65 "http://localhost:8010/api/documentation" "Mozilla/5.0 (Windows NT 10.0; Win64; x64) AppleWebKit/537.36 (KHTML, like Gecko) Chrome/87.0.4280.141 Safari/537.36"
172.18.0.1 - - [15/Jan/2021:12:54:57 +0000] "POST /api/sprints/start HTTP/1.1" 200 65 "http://localhost:8010/api/documentation" "Mozilla/5.0 (Windows NT 10.0; Win64; x64) AppleWebKit/537.36 (KHTML, like Gecko) Chrome/87.0.4280.141 Safari/537.36"
172.18.0.1 - - [15/Jan/2021:12:54:57 +0000] "POST /api/sprints/start HTTP/1.1" 200 65 "http://localhost:8010/api/documentation" "Mozilla/5.0 (Windows NT 10.0; Win64; x64) AppleWebKit/537.36 (KHTML, like Gecko) Chrome/87.0.4280.141 Safari/537.36"
172.18.0.1 - - [15/Jan/2021:12:54:57 +0000] "POST /api/sprints/start HTTP/1.1" 200 65 "http://localhost:8010/api/documentation" "Mozilla/5.0 (Windows NT 10.0; Win64; x64) AppleWebKit/537.36 (KHTML, like Gecko) Chrome/87.0.4280.141 Safari/537.36"
172.18.0.1 - - [15/Jan/2021:12:54:57 +0000] "POST /api/sprints/start HTTP/1.1" 200 65 "http://localhost:8010/api/documentation" "Mozilla/5.0 (Windows NT 10.0; Win64; x64) AppleWebKit/537.36 (KHTML, like Gecko) Chrome/87.0.4280.141 Safari/537.36"
172.18.0.1 - - [15/Jan/2021:12:55:03 +0000] "POST /api/sprints/start HTTP/1.1" 200 65 "-" "PostmanRuntime/7.26.8"
172.18.0.1 - - [15/Jan/2021:12:55:05 +0000] "POST /api/sprints/start HTTP/1.1" 200 65 "-" "PostmanRuntime/7.26.8"
172.18.0.1 - - [15/Jan/2021:12:56:16 +0000] "GET /api/documentation HTTP/1.1" 200 647 "-" "Mozilla/5.0 (Windows NT 10.0; Win64; x64) AppleWebKit/537.36 (KHTML, like Gecko) Chrome/87.0.4280.141 Safari/537.36"
172.18.0.1 - - [15/Jan/2021:12:56:16 +0000] "GET /api/documentation/swagger HTTP/1.1" 200 1409 "http://localhost:8010/api/documentation" "Mozilla/5.0 (Windows NT 10.0; Win64; x64) AppleWebKit/537.36 (KHTML, like Gecko) Chrome/87.0.4280.141 Safari/537.36"
172.18.0.1 - - [15/Jan/2021:12:56:17 +0000] "GET /api/documentation HTTP/1.1" 200 647 "-" "Mozilla/5.0 (Windows NT 10.0; Win64; x64) AppleWebKit/537.36 (KHTML, like Gecko) Chrome/87.0.4280.141 Safari/537.36"
172.18.0.1 - - [15/Jan/2021:12:56:17 +0000] "GET /js/swagger-ui-bundle.js HTTP/1.1" 200 1038437 "http://localhost:8010/api/documentation" "Mozilla/5.0 (Windows NT 10.0; Win64; x64) AppleWebKit/537.36 (KHTML, like Gecko) Chrome/87.0.4280.141 Safari/537.36"
172.18.0.1 - - [15/Jan/2021:12:56:17 +0000] "GET /css/swagger-ui.css HTTP/1.1" 200 143074 "http://localhost:8010/api/documentation" "Mozilla/5.0 (Windows NT 10.0; Win64; x64) AppleWebKit/537.36 (KHTML, like Gecko) Chrome/87.0.4280.141 Safari/537.36"
172.18.0.1 - - [15/Jan/2021:12:56:17 +0000] "GET /js/swagger-ui-standalone-preset.js HTTP/1.1" 200 329478 "http://localhost:8010/api/documentation" "Mozilla/5.0 (Windows NT 10.0; Win64; x64) AppleWebKit/537.36 (KHTML, like Gecko) Chrome/87.0.4280.141 Safari/537.36"
172.18.0.1 - - [15/Jan/2021:12:56:17 +0000] "GET /api/documentation/swagger HTTP/1.1" 200 1409 "http://localhost:8010/api/documentation" "Mozilla/5.0 (Windows NT 10.0; Win64; x64) AppleWebKit/537.36 (KHTML, like Gecko) Chrome/87.0.4280.141 Safari/537.36"
172.18.0.1 - - [15/Jan/2021:12:56:50 +0000] "GET /api/documentation HTTP/1.1" 200 647 "-" "Mozilla/5.0 (Windows NT 10.0; Win64; x64) AppleWebKit/537.36 (KHTML, like Gecko) Chrome/87.0.4280.141 Safari/537.36"
172.18.0.1 - - [15/Jan/2021:12:56:50 +0000] "GET /css/swagger-ui.css HTTP/1.1" 200 143074 "http://localhost:8010/api/documentation" "Mozilla/5.0 (Windows NT 10.0; Win64; x64) AppleWebKit/537.36 (KHTML, like Gecko) Chrome/87.0.4280.141 Safari/537.36"
172.18.0.1 - - [15/Jan/2021:12:56:50 +0000] "GET /js/swagger-ui-bundle.js HTTP/1.1" 200 1038437 "http://localhost:8010/api/documentation" "Mozilla/5.0 (Windows NT 10.0; Win64; x64) AppleWebKit/537.36 (KHTML, like Gecko) Chrome/87.0.4280.141 Safari/537.36"
172.18.0.1 - - [15/Jan/2021:12:56:50 +0000] "GET /js/swagger-ui-standalone-preset.js HTTP/1.1" 200 329478 "http://localhost:8010/api/documentation" "Mozilla/5.0 (Windows NT 10.0; Win64; x64) AppleWebKit/537.36 (KHTML, like Gecko) Chrome/87.0.4280.141 Safari/537.36"
172.18.0.1 - - [15/Jan/2021:12:56:50 +0000] "GET /favicon.ico HTTP/1.1" 200 318 "http://localhost:8010/api/documentation" "Mozilla/5.0 (Windows NT 10.0; Win64; x64) AppleWebKit/537.36 (KHTML, like Gecko) Chrome/87.0.4280.141 Safari/537.36"
172.18.0.1 - - [15/Jan/2021:12:56:50 +0000] "GET /api/documentation/swagger HTTP/1.1" 200 1394 "http://localhost:8010/api/documentation" "Mozilla/5.0 (Windows NT 10.0; Win64; x64) AppleWebKit/537.36 (KHTML, like Gecko) Chrome/87.0.4280.141 Safari/537.36"
172.18.0.1 - - [15/Jan/2021:13:55:57 +0000] "POST /api/sprints/start HTTP/1.1" 200 43 "-" "PostmanRuntime/7.26.8"
172.18.0.1 - - [15/Jan/2021:13:56:12 +0000] "POST /api/sprints/start HTTP/1.1" 200 43 "-" "PostmanRuntime/7.26.8"
172.18.0.1 - - [15/Jan/2021:13:56:24 +0000] "POST /api/sprints/start HTTP/1.1" 200 346 "-" "PostmanRuntime/7.26.8"
172.18.0.1 - - [15/Jan/2021:13:56:29 +0000] "POST /api/sprints/start HTTP/1.1" 200 36 "-" "PostmanRuntime/7.26.8"
172.18.0.1 - - [15/Jan/2021:13:57:09 +0000] "POST /api/sprints/start HTTP/1.1" 200 38 "-" "PostmanRuntime/7.26.8"
172.18.0.1 - - [15/Jan/2021:13:59:49 +0000] "GET /api/documentation HTTP/1.1" 200 647 "-" "Mozilla/5.0 (Windows NT 10.0; Win64; x64) AppleWebKit/537.36 (KHTML, like Gecko) Chrome/87.0.4280.141 Safari/537.36"
172.18.0.1 - - [15/Jan/2021:13:59:49 +0000] "GET /js/swagger-ui-bundle.js HTTP/1.1" 200 1038437 "http://localhost:8010/api/documentation" "Mozilla/5.0 (Windows NT 10.0; Win64; x64) AppleWebKit/537.36 (KHTML, like Gecko) Chrome/87.0.4280.141 Safari/537.36"
172.18.0.1 - - [15/Jan/2021:13:59:49 +0000] "GET /css/swagger-ui.css HTTP/1.1" 200 143074 "http://localhost:8010/api/documentation" "Mozilla/5.0 (Windows NT 10.0; Win64; x64) AppleWebKit/537.36 (KHTML, like Gecko) Chrome/87.0.4280.141 Safari/537.36"
172.18.0.1 - - [15/Jan/2021:13:59:49 +0000] "GET /js/swagger-ui-standalone-preset.js HTTP/1.1" 200 329478 "http://localhost:8010/api/documentation" "Mozilla/5.0 (Windows NT 10.0; Win64; x64) AppleWebKit/537.36 (KHTML, like Gecko) Chrome/87.0.4280.141 Safari/537.36"
172.18.0.1 - - [15/Jan/2021:13:59:49 +0000] "GET /favicon.ico HTTP/1.1" 200 318 "http://localhost:8010/api/documentation" "Mozilla/5.0 (Windows NT 10.0; Win64; x64) AppleWebKit/537.36 (KHTML, like Gecko) Chrome/87.0.4280.141 Safari/537.36"
172.18.0.1 - - [15/Jan/2021:13:59:49 +0000] "GET /api/documentation/swagger HTTP/1.1" 200 1394 "http://localhost:8010/api/documentation" "Mozilla/5.0 (Windows NT 10.0; Win64; x64) AppleWebKit/537.36 (KHTML, like Gecko) Chrome/87.0.4280.141 Safari/537.36"
172.18.0.1 - - [15/Jan/2021:13:59:55 +0000] "POST /api/sprints/start HTTP/1.1" 500 69559 "http://localhost:8010/api/documentation" "Mozilla/5.0 (Windows NT 10.0; Win64; x64) AppleWebKit/537.36 (KHTML, like Gecko) Chrome/87.0.4280.141 Safari/537.36"
172.18.0.1 - - [15/Jan/2021:14:00:12 +0000] "POST /api/sprints/start HTTP/1.1" 500 69560 "http://localhost:8010/api/documentation" "Mozilla/5.0 (Windows NT 10.0; Win64; x64) AppleWebKit/537.36 (KHTML, like Gecko) Chrome/87.0.4280.141 Safari/537.36"
172.18.0.1 - - [15/Jan/2021:14:00:13 +0000] "GET /api/documentation HTTP/1.1" 200 647 "-" "Mozilla/5.0 (Windows NT 10.0; Win64; x64) AppleWebKit/537.36 (KHTML, like Gecko) Chrome/87.0.4280.141 Safari/537.36"
172.18.0.1 - - [15/Jan/2021:14:00:13 +0000] "GET /css/swagger-ui.css HTTP/1.1" 200 143074 "http://localhost:8010/api/documentation" "Mozilla/5.0 (Windows NT 10.0; Win64; x64) AppleWebKit/537.36 (KHTML, like Gecko) Chrome/87.0.4280.141 Safari/537.36"
172.18.0.1 - - [15/Jan/2021:14:00:13 +0000] "GET /js/swagger-ui-bundle.js HTTP/1.1" 200 1038437 "http://localhost:8010/api/documentation" "Mozilla/5.0 (Windows NT 10.0; Win64; x64) AppleWebKit/537.36 (KHTML, like Gecko) Chrome/87.0.4280.141 Safari/537.36"
172.18.0.1 - - [15/Jan/2021:14:00:13 +0000] "GET /js/swagger-ui-standalone-preset.js HTTP/1.1" 200 329478 "http://localhost:8010/api/documentation" "Mozilla/5.0 (Windows NT 10.0; Win64; x64) AppleWebKit/537.36 (KHTML, like Gecko) Chrome/87.0.4280.141 Safari/537.36"
172.18.0.1 - - [15/Jan/2021:14:00:13 +0000] "GET /api/documentation/swagger HTTP/1.1" 200 1394 "http://localhost:8010/api/documentation" "Mozilla/5.0 (Windows NT 10.0; Win64; x64) AppleWebKit/537.36 (KHTML, like Gecko) Chrome/87.0.4280.141 Safari/537.36"
172.18.0.1 - - [15/Jan/2021:14:00:14 +0000] "GET /api/documentation HTTP/1.1" 200 647 "-" "Mozilla/5.0 (Windows NT 10.0; Win64; x64) AppleWebKit/537.36 (KHTML, like Gecko) Chrome/87.0.4280.141 Safari/537.36"
172.18.0.1 - - [15/Jan/2021:14:00:14 +0000] "GET /api/documentation/swagger HTTP/1.1" 200 1394 "http://localhost:8010/api/documentation" "Mozilla/5.0 (Windows NT 10.0; Win64; x64) AppleWebKit/537.36 (KHTML, like Gecko) Chrome/87.0.4280.141 Safari/537.36"
172.18.0.1 - - [15/Jan/2021:14:00:17 +0000] "POST /api/sprints/start HTTP/1.1" 200 54 "http://localhost:8010/api/documentation" "Mozilla/5.0 (Windows NT 10.0; Win64; x64) AppleWebKit/537.36 (KHTML, like Gecko) Chrome/87.0.4280.141 Safari/537.36"
172.18.0.1 - - [15/Jan/2021:14:00:22 +0000] "POST /api/sprints/start HTTP/1.1" 200 65 "http://localhost:8010/api/documentation" "Mozilla/5.0 (Windows NT 10.0; Win64; x64) AppleWebKit/537.36 (KHTML, like Gecko) Chrome/87.0.4280.141 Safari/537.36"
172.18.0.1 - - [15/Jan/2021:14:00:25 +0000] "POST /api/sprints/start HTTP/1.1" 500 69560 "http://localhost:8010/api/documentation" "Mozilla/5.0 (Windows NT 10.0; Win64; x64) AppleWebKit/537.36 (KHTML, like Gecko) Chrome/87.0.4280.141 Safari/537.36"
172.18.0.1 - - [15/Jan/2021:14:00:28 +0000] "POST /api/sprints/start HTTP/1.1" 500 69546 "-" "PostmanRuntime/7.26.8"
172.18.0.1 - - [15/Jan/2021:14:00:50 +0000] "POST /api/sprints/start HTTP/1.1" 500 69547 "-" "PostmanRuntime/7.26.8"
172.18.0.1 - - [15/Jan/2021:14:01:38 +0000] "GET /api/documentation HTTP/1.1" 200 647 "-" "Mozilla/5.0 (Windows NT 10.0; Win64; x64) AppleWebKit/537.36 (KHTML, like Gecko) Chrome/87.0.4280.141 Safari/537.36"
172.18.0.1 - - [15/Jan/2021:14:01:38 +0000] "GET /api/documentation/swagger HTTP/1.1" 200 1394 "http://localhost:8010/api/documentation" "Mozilla/5.0 (Windows NT 10.0; Win64; x64) AppleWebKit/537.36 (KHTML, like Gecko) Chrome/87.0.4280.141 Safari/537.36"
172.18.0.1 - - [15/Jan/2021:14:01:45 +0000] "POST /api/sprints/start HTTP/1.1" 200 52 "http://localhost:8010/api/documentation" "Mozilla/5.0 (Windows NT 10.0; Win64; x64) AppleWebKit/537.36 (KHTML, like Gecko) Chrome/87.0.4280.141 Safari/537.36"
172.18.0.1 - - [15/Jan/2021:14:01:47 +0000] "POST /api/sprints/start HTTP/1.1" 200 52 "http://localhost:8010/api/documentation" "Mozilla/5.0 (Windows NT 10.0; Win64; x64) AppleWebKit/537.36 (KHTML, like Gecko) Chrome/87.0.4280.141 Safari/537.36"
172.18.0.1 - - [15/Jan/2021:14:01:54 +0000] "POST /api/sprints/start HTTP/1.1" 200 54 "http://localhost:8010/api/documentation" "Mozilla/5.0 (Windows NT 10.0; Win64; x64) AppleWebKit/537.36 (KHTML, like Gecko) Chrome/87.0.4280.141 Safari/537.36"
172.18.0.1 - - [15/Jan/2021:14:02:12 +0000] "POST /api/sprints HTTP/1.1" 400 95 "http://localhost:8010/api/documentation" "Mozilla/5.0 (Windows NT 10.0; Win64; x64) AppleWebKit/537.36 (KHTML, like Gecko) Chrome/87.0.4280.141 Safari/537.36"
172.18.0.1 - - [15/Jan/2021:14:02:13 +0000] "POST /api/sprints HTTP/1.1" 400 95 "http://localhost:8010/api/documentation" "Mozilla/5.0 (Windows NT 10.0; Win64; x64) AppleWebKit/537.36 (KHTML, like Gecko) Chrome/87.0.4280.141 Safari/537.36"
172.18.0.1 - - [15/Jan/2021:14:02:23 +0000] "POST /api/sprints HTTP/1.1" 200 23 "http://localhost:8010/api/documentation" "Mozilla/5.0 (Windows NT 10.0; Win64; x64) AppleWebKit/537.36 (KHTML, like Gecko) Chrome/87.0.4280.141 Safari/537.36"
172.18.0.1 - - [15/Jan/2021:14:02:41 +0000] "POST /api/sprints HTTP/1.1" 400 60 "http://localhost:8010/api/documentation" "Mozilla/5.0 (Windows NT 10.0; Win64; x64) AppleWebKit/537.36 (KHTML, like Gecko) Chrome/87.0.4280.141 Safari/537.36"
172.18.0.1 - - [15/Jan/2021:14:05:21 +0000] "GET /api/documentation HTTP/1.1" 200 647 "-" "Mozilla/5.0 (Windows NT 10.0; Win64; x64) AppleWebKit/537.36 (KHTML, like Gecko) Chrome/87.0.4280.141 Safari/537.36"
172.18.0.1 - - [15/Jan/2021:14:05:21 +0000] "GET /css/swagger-ui.css HTTP/1.1" 200 143074 "http://localhost:8010/api/documentation" "Mozilla/5.0 (Windows NT 10.0; Win64; x64) AppleWebKit/537.36 (KHTML, like Gecko) Chrome/87.0.4280.141 Safari/537.36"
172.18.0.1 - - [15/Jan/2021:14:05:21 +0000] "GET /js/swagger-ui-bundle.js HTTP/1.1" 200 1038437 "http://localhost:8010/api/documentation" "Mozilla/5.0 (Windows NT 10.0; Win64; x64) AppleWebKit/537.36 (KHTML, like Gecko) Chrome/87.0.4280.141 Safari/537.36"
172.18.0.1 - - [15/Jan/2021:14:05:21 +0000] "GET /js/swagger-ui-standalone-preset.js HTTP/1.1" 200 329478 "http://localhost:8010/api/documentation" "Mozilla/5.0 (Windows NT 10.0; Win64; x64) AppleWebKit/537.36 (KHTML, like Gecko) Chrome/87.0.4280.141 Safari/537.36"
172.18.0.1 - - [15/Jan/2021:14:05:21 +0000] "GET /favicon.ico HTTP/1.1" 200 318 "http://localhost:8010/api/documentation" "Mozilla/5.0 (Windows NT 10.0; Win64; x64) AppleWebKit/537.36 (KHTML, like Gecko) Chrome/87.0.4280.141 Safari/537.36"
172.18.0.1 - - [15/Jan/2021:14:05:21 +0000] "GET /api/documentation/swagger HTTP/1.1" 200 1511 "http://localhost:8010/api/documentation" "Mozilla/5.0 (Windows NT 10.0; Win64; x64) AppleWebKit/537.36 (KHTML, like Gecko) Chrome/87.0.4280.141 Safari/537.36"
172.18.0.1 - - [15/Jan/2021:14:05:37 +0000] "POST /api/sprints/close HTTP/1.1" 200 48 "http://localhost:8010/api/documentation" "Mozilla/5.0 (Windows NT 10.0; Win64; x64) AppleWebKit/537.36 (KHTML, like Gecko) Chrome/87.0.4280.141 Safari/537.36"
172.18.0.1 - - [15/Jan/2021:14:05:42 +0000] "POST /api/sprints/close HTTP/1.1" 200 52 "http://localhost:8010/api/documentation" "Mozilla/5.0 (Windows NT 10.0; Win64; x64) AppleWebKit/537.36 (KHTML, like Gecko) Chrome/87.0.4280.141 Safari/537.36"
172.18.0.1 - - [15/Jan/2021:14:05:46 +0000] "POST /api/sprints/close HTTP/1.1" 200 66 "http://localhost:8010/api/documentation" "Mozilla/5.0 (Windows NT 10.0; Win64; x64) AppleWebKit/537.36 (KHTML, like Gecko) Chrome/87.0.4280.141 Safari/537.36"
172.18.0.1 - - [15/Jan/2021:14:15:50 +0000] "GET /api/documentation HTTP/1.1" 200 647 "-" "Mozilla/5.0 (Windows NT 10.0; Win64; x64) AppleWebKit/537.36 (KHTML, like Gecko) Chrome/87.0.4280.141 Safari/537.36"
172.18.0.1 - - [15/Jan/2021:14:15:50 +0000] "GET /css/swagger-ui.css HTTP/1.1" 200 143074 "http://localhost:8010/api/documentation" "Mozilla/5.0 (Windows NT 10.0; Win64; x64) AppleWebKit/537.36 (KHTML, like Gecko) Chrome/87.0.4280.141 Safari/537.36"
172.18.0.1 - - [15/Jan/2021:14:15:50 +0000] "GET /js/swagger-ui-bundle.js HTTP/1.1" 200 1038437 "http://localhost:8010/api/documentation" "Mozilla/5.0 (Windows NT 10.0; Win64; x64) AppleWebKit/537.36 (KHTML, like Gecko) Chrome/87.0.4280.141 Safari/537.36"
172.18.0.1 - - [15/Jan/2021:14:15:50 +0000] "GET /js/swagger-ui-standalone-preset.js HTTP/1.1" 200 329478 "http://localhost:8010/api/documentation" "Mozilla/5.0 (Windows NT 10.0; Win64; x64) AppleWebKit/537.36 (KHTML, like Gecko) Chrome/87.0.4280.141 Safari/537.36"
172.18.0.1 - - [15/Jan/2021:14:15:50 +0000] "GET /favicon.ico HTTP/1.1" 200 318 "http://localhost:8010/api/documentation" "Mozilla/5.0 (Windows NT 10.0; Win64; x64) AppleWebKit/537.36 (KHTML, like Gecko) Chrome/87.0.4280.141 Safari/537.36"
172.18.0.1 - - [15/Jan/2021:14:15:50 +0000] "GET /api/documentation/swagger HTTP/1.1" 500 84002 "http://localhost:8010/api/documentation" "Mozilla/5.0 (Windows NT 10.0; Win64; x64) AppleWebKit/537.36 (KHTML, like Gecko) Chrome/87.0.4280.141 Safari/537.36"
172.18.0.1 - - [15/Jan/2021:14:16:19 +0000] "GET /api/documentation HTTP/1.1" 200 647 "-" "Mozilla/5.0 (Windows NT 10.0; Win64; x64) AppleWebKit/537.36 (KHTML, like Gecko) Chrome/87.0.4280.141 Safari/537.36"
172.18.0.1 - - [15/Jan/2021:14:16:19 +0000] "GET /css/swagger-ui.css HTTP/1.1" 200 143074 "http://localhost:8010/api/documentation" "Mozilla/5.0 (Windows NT 10.0; Win64; x64) AppleWebKit/537.36 (KHTML, like Gecko) Chrome/87.0.4280.141 Safari/537.36"
172.18.0.1 - - [15/Jan/2021:14:16:19 +0000] "GET /js/swagger-ui-bundle.js HTTP/1.1" 200 1038437 "http://localhost:8010/api/documentation" "Mozilla/5.0 (Windows NT 10.0; Win64; x64) AppleWebKit/537.36 (KHTML, like Gecko) Chrome/87.0.4280.141 Safari/537.36"
172.18.0.1 - - [15/Jan/2021:14:16:19 +0000] "GET /js/swagger-ui-standalone-preset.js HTTP/1.1" 200 329478 "http://localhost:8010/api/documentation" "Mozilla/5.0 (Windows NT 10.0; Win64; x64) AppleWebKit/537.36 (KHTML, like Gecko) Chrome/87.0.4280.141 Safari/537.36"
172.18.0.1 - - [15/Jan/2021:14:16:20 +0000] "GET /api/documentation/swagger HTTP/1.1" 500 84002 "http://localhost:8010/api/documentation" "Mozilla/5.0 (Windows NT 10.0; Win64; x64) AppleWebKit/537.36 (KHTML, like Gecko) Chrome/87.0.4280.141 Safari/537.36"
172.18.0.1 - - [15/Jan/2021:14:16:20 +0000] "GET /favicon.ico HTTP/1.1" 200 318 "http://localhost:8010/api/documentation" "Mozilla/5.0 (Windows NT 10.0; Win64; x64) AppleWebKit/537.36 (KHTML, like Gecko) Chrome/87.0.4280.141 Safari/537.36"
172.18.0.1 - - [15/Jan/2021:14:18:51 +0000] "GET /api/documentation HTTP/1.1" 200 647 "-" "Mozilla/5.0 (Windows NT 10.0; Win64; x64) AppleWebKit/537.36 (KHTML, like Gecko) Chrome/87.0.4280.141 Safari/537.36"
172.18.0.1 - - [15/Jan/2021:14:18:51 +0000] "GET /js/swagger-ui-bundle.js HTTP/1.1" 200 1038437 "http://localhost:8010/api/documentation" "Mozilla/5.0 (Windows NT 10.0; Win64; x64) AppleWebKit/537.36 (KHTML, like Gecko) Chrome/87.0.4280.141 Safari/537.36"
172.18.0.1 - - [15/Jan/2021:14:18:51 +0000] "GET /css/swagger-ui.css HTTP/1.1" 200 143074 "http://localhost:8010/api/documentation" "Mozilla/5.0 (Windows NT 10.0; Win64; x64) AppleWebKit/537.36 (KHTML, like Gecko) Chrome/87.0.4280.141 Safari/537.36"
172.18.0.1 - - [15/Jan/2021:14:18:51 +0000] "GET /js/swagger-ui-standalone-preset.js HTTP/1.1" 200 329478 "http://localhost:8010/api/documentation" "Mozilla/5.0 (Windows NT 10.0; Win64; x64) AppleWebKit/537.36 (KHTML, like Gecko) Chrome/87.0.4280.141 Safari/537.36"
172.18.0.1 - - [15/Jan/2021:14:18:51 +0000] "GET /favicon.ico HTTP/1.1" 200 318 "http://localhost:8010/api/documentation" "Mozilla/5.0 (Windows NT 10.0; Win64; x64) AppleWebKit/537.36 (KHTML, like Gecko) Chrome/87.0.4280.141 Safari/537.36"
172.18.0.1 - - [15/Jan/2021:14:18:51 +0000] "GET /api/documentation/swagger HTTP/1.1" 500 119010 "http://localhost:8010/api/documentation" "Mozilla/5.0 (Windows NT 10.0; Win64; x64) AppleWebKit/537.36 (KHTML, like Gecko) Chrome/87.0.4280.141 Safari/537.36"
172.18.0.1 - - [15/Jan/2021:14:18:53 +0000] "GET /api/documentation HTTP/1.1" 200 647 "-" "Mozilla/5.0 (Windows NT 10.0; Win64; x64) AppleWebKit/537.36 (KHTML, like Gecko) Chrome/87.0.4280.141 Safari/537.36"
172.18.0.1 - - [15/Jan/2021:14:18:53 +0000] "GET /css/swagger-ui.css HTTP/1.1" 200 143074 "http://localhost:8010/api/documentation" "Mozilla/5.0 (Windows NT 10.0; Win64; x64) AppleWebKit/537.36 (KHTML, like Gecko) Chrome/87.0.4280.141 Safari/537.36"
172.18.0.1 - - [15/Jan/2021:14:18:53 +0000] "GET /js/swagger-ui-bundle.js HTTP/1.1" 200 1038437 "http://localhost:8010/api/documentation" "Mozilla/5.0 (Windows NT 10.0; Win64; x64) AppleWebKit/537.36 (KHTML, like Gecko) Chrome/87.0.4280.141 Safari/537.36"
172.18.0.1 - - [15/Jan/2021:14:18:53 +0000] "GET /js/swagger-ui-standalone-preset.js HTTP/1.1" 200 329478 "http://localhost:8010/api/documentation" "Mozilla/5.0 (Windows NT 10.0; Win64; x64) AppleWebKit/537.36 (KHTML, like Gecko) Chrome/87.0.4280.141 Safari/537.36"
172.18.0.1 - - [15/Jan/2021:14:18:53 +0000] "GET /favicon.ico HTTP/1.1" 200 318 "http://localhost:8010/api/documentation" "Mozilla/5.0 (Windows NT 10.0; Win64; x64) AppleWebKit/537.36 (KHTML, like Gecko) Chrome/87.0.4280.141 Safari/537.36"
172.18.0.1 - - [15/Jan/2021:14:18:53 +0000] "GET /api/documentation/swagger HTTP/1.1" 500 119010 "http://localhost:8010/api/documentation" "Mozilla/5.0 (Windows NT 10.0; Win64; x64) AppleWebKit/537.36 (KHTML, like Gecko) Chrome/87.0.4280.141 Safari/537.36"
172.18.0.1 - - [15/Jan/2021:14:18:54 +0000] "GET /api/documentation HTTP/1.1" 200 647 "-" "Mozilla/5.0 (Windows NT 10.0; Win64; x64) AppleWebKit/537.36 (KHTML, like Gecko) Chrome/87.0.4280.141 Safari/537.36"
172.18.0.1 - - [15/Jan/2021:14:18:54 +0000] "GET /js/swagger-ui-standalone-preset.js HTTP/1.1" 200 329478 "http://localhost:8010/api/documentation" "Mozilla/5.0 (Windows NT 10.0; Win64; x64) AppleWebKit/537.36 (KHTML, like Gecko) Chrome/87.0.4280.141 Safari/537.36"
172.18.0.1 - - [15/Jan/2021:14:18:54 +0000] "GET /css/swagger-ui.css HTTP/1.1" 200 143074 "http://localhost:8010/api/documentation" "Mozilla/5.0 (Windows NT 10.0; Win64; x64) AppleWebKit/537.36 (KHTML, like Gecko) Chrome/87.0.4280.141 Safari/537.36"
172.18.0.1 - - [15/Jan/2021:14:18:54 +0000] "GET /js/swagger-ui-bundle.js HTTP/1.1" 200 1038437 "http://localhost:8010/api/documentation" "Mozilla/5.0 (Windows NT 10.0; Win64; x64) AppleWebKit/537.36 (KHTML, like Gecko) Chrome/87.0.4280.141 Safari/537.36"
172.18.0.1 - - [15/Jan/2021:14:18:54 +0000] "GET /favicon.ico HTTP/1.1" 200 318 "http://localhost:8010/api/documentation" "Mozilla/5.0 (Windows NT 10.0; Win64; x64) AppleWebKit/537.36 (KHTML, like Gecko) Chrome/87.0.4280.141 Safari/537.36"
172.18.0.1 - - [15/Jan/2021:14:18:54 +0000] "GET /api/documentation/swagger HTTP/1.1" 500 119017 "http://localhost:8010/api/documentation" "Mozilla/5.0 (Windows NT 10.0; Win64; x64) AppleWebKit/537.36 (KHTML, like Gecko) Chrome/87.0.4280.141 Safari/537.36"
172.18.0.1 - - [15/Jan/2021:14:19:21 +0000] "GET /api/documentation HTTP/1.1" 200 647 "-" "Mozilla/5.0 (Windows NT 10.0; Win64; x64) AppleWebKit/537.36 (KHTML, like Gecko) Chrome/87.0.4280.141 Safari/537.36"
172.18.0.1 - - [15/Jan/2021:14:19:21 +0000] "GET /css/swagger-ui.css HTTP/1.1" 200 143074 "http://localhost:8010/api/documentation" "Mozilla/5.0 (Windows NT 10.0; Win64; x64) AppleWebKit/537.36 (KHTML, like Gecko) Chrome/87.0.4280.141 Safari/537.36"
172.18.0.1 - - [15/Jan/2021:14:19:21 +0000] "GET /js/swagger-ui-bundle.js HTTP/1.1" 200 1038437 "http://localhost:8010/api/documentation" "Mozilla/5.0 (Windows NT 10.0; Win64; x64) AppleWebKit/537.36 (KHTML, like Gecko) Chrome/87.0.4280.141 Safari/537.36"
172.18.0.1 - - [15/Jan/2021:14:19:21 +0000] "GET /js/swagger-ui-standalone-preset.js HTTP/1.1" 200 329478 "http://localhost:8010/api/documentation" "Mozilla/5.0 (Windows NT 10.0; Win64; x64) AppleWebKit/537.36 (KHTML, like Gecko) Chrome/87.0.4280.141 Safari/537.36"
172.18.0.1 - - [15/Jan/2021:14:19:21 +0000] "GET /favicon.ico HTTP/1.1" 200 318 "http://localhost:8010/api/documentation" "Mozilla/5.0 (Windows NT 10.0; Win64; x64) AppleWebKit/537.36 (KHTML, like Gecko) Chrome/87.0.4280.141 Safari/537.36"
172.18.0.1 - - [15/Jan/2021:14:19:21 +0000] "GET /api/documentation/swagger HTTP/1.1" 500 119010 "http://localhost:8010/api/documentation" "Mozilla/5.0 (Windows NT 10.0; Win64; x64) AppleWebKit/537.36 (KHTML, like Gecko) Chrome/87.0.4280.141 Safari/537.36"
172.18.0.1 - - [15/Jan/2021:14:19:22 +0000] "GET /api/documentation HTTP/1.1" 200 647 "-" "Mozilla/5.0 (Windows NT 10.0; Win64; x64) AppleWebKit/537.36 (KHTML, like Gecko) Chrome/87.0.4280.141 Safari/537.36"
172.18.0.1 - - [15/Jan/2021:14:19:22 +0000] "GET /css/swagger-ui.css HTTP/1.1" 200 143074 "http://localhost:8010/api/documentation" "Mozilla/5.0 (Windows NT 10.0; Win64; x64) AppleWebKit/537.36 (KHTML, like Gecko) Chrome/87.0.4280.141 Safari/537.36"
172.18.0.1 - - [15/Jan/2021:14:19:22 +0000] "GET /js/swagger-ui-bundle.js HTTP/1.1" 200 1038437 "http://localhost:8010/api/documentation" "Mozilla/5.0 (Windows NT 10.0; Win64; x64) AppleWebKit/537.36 (KHTML, like Gecko) Chrome/87.0.4280.141 Safari/537.36"
172.18.0.1 - - [15/Jan/2021:14:19:22 +0000] "GET /js/swagger-ui-standalone-preset.js HTTP/1.1" 200 329478 "http://localhost:8010/api/documentation" "Mozilla/5.0 (Windows NT 10.0; Win64; x64) AppleWebKit/537.36 (KHTML, like Gecko) Chrome/87.0.4280.141 Safari/537.36"
172.18.0.1 - - [15/Jan/2021:14:19:22 +0000] "GET /favicon.ico HTTP/1.1" 200 318 "http://localhost:8010/api/documentation" "Mozilla/5.0 (Windows NT 10.0; Win64; x64) AppleWebKit/537.36 (KHTML, like Gecko) Chrome/87.0.4280.141 Safari/537.36"
172.18.0.1 - - [15/Jan/2021:14:19:22 +0000] "GET /api/documentation/swagger HTTP/1.1" 500 119010 "http://localhost:8010/api/documentation" "Mozilla/5.0 (Windows NT 10.0; Win64; x64) AppleWebKit/537.36 (KHTML, like Gecko) Chrome/87.0.4280.141 Safari/537.36"
172.18.0.1 - - [15/Jan/2021:14:19:32 +0000] "GET /api/documentation/swagger HTTP/1.1" 500 119010 "-" "Mozilla/5.0 (Windows NT 10.0; Win64; x64) AppleWebKit/537.36 (KHTML, like Gecko) Chrome/87.0.4280.141 Safari/537.36"
172.18.0.1 - - [15/Jan/2021:14:27:32 +0000] "GET /api/documentation/swagger HTTP/1.1" 500 84672 "-" "Mozilla/5.0 (Windows NT 10.0; Win64; x64) AppleWebKit/537.36 (KHTML, like Gecko) Chrome/87.0.4280.141 Safari/537.36"
172.18.0.1 - - [15/Jan/2021:14:27:32 +0000] "GET /favicon.ico HTTP/1.1" 200 318 "http://localhost:8010/api/documentation/swagger" "Mozilla/5.0 (Windows NT 10.0; Win64; x64) AppleWebKit/537.36 (KHTML, like Gecko) Chrome/87.0.4280.141 Safari/537.36"
172.18.0.1 - - [15/Jan/2021:14:27:34 +0000] "GET /api/documentation HTTP/1.1" 200 647 "-" "Mozilla/5.0 (Windows NT 10.0; Win64; x64) AppleWebKit/537.36 (KHTML, like Gecko) Chrome/87.0.4280.141 Safari/537.36"
172.18.0.1 - - [15/Jan/2021:14:27:34 +0000] "GET /css/swagger-ui.css HTTP/1.1" 200 143074 "http://localhost:8010/api/documentation" "Mozilla/5.0 (Windows NT 10.0; Win64; x64) AppleWebKit/537.36 (KHTML, like Gecko) Chrome/87.0.4280.141 Safari/537.36"
172.18.0.1 - - [15/Jan/2021:14:27:34 +0000] "GET /js/swagger-ui-bundle.js HTTP/1.1" 200 1038437 "http://localhost:8010/api/documentation" "Mozilla/5.0 (Windows NT 10.0; Win64; x64) AppleWebKit/537.36 (KHTML, like Gecko) Chrome/87.0.4280.141 Safari/537.36"
172.18.0.1 - - [15/Jan/2021:14:27:34 +0000] "GET /js/swagger-ui-standalone-preset.js HTTP/1.1" 200 329478 "http://localhost:8010/api/documentation" "Mozilla/5.0 (Windows NT 10.0; Win64; x64) AppleWebKit/537.36 (KHTML, like Gecko) Chrome/87.0.4280.141 Safari/537.36"
172.18.0.1 - - [15/Jan/2021:14:27:34 +0000] "GET /favicon.ico HTTP/1.1" 200 318 "http://localhost:8010/api/documentation" "Mozilla/5.0 (Windows NT 10.0; Win64; x64) AppleWebKit/537.36 (KHTML, like Gecko) Chrome/87.0.4280.141 Safari/537.36"
172.18.0.1 - - [15/Jan/2021:14:27:34 +0000] "GET /api/documentation/swagger HTTP/1.1" 500 84672 "http://localhost:8010/api/documentation" "Mozilla/5.0 (Windows NT 10.0; Win64; x64) AppleWebKit/537.36 (KHTML, like Gecko) Chrome/87.0.4280.141 Safari/537.36"
172.18.0.1 - - [15/Jan/2021:14:28:03 +0000] "GET /api/documentation/swagger HTTP/1.1" 500 85007 "-" "Mozilla/5.0 (Windows NT 10.0; Win64; x64) AppleWebKit/537.36 (KHTML, like Gecko) Chrome/87.0.4280.141 Safari/537.36"
172.18.0.1 - - [15/Jan/2021:14:28:03 +0000] "GET /favicon.ico HTTP/1.1" 200 318 "http://localhost:8010/api/documentation/swagger" "Mozilla/5.0 (Windows NT 10.0; Win64; x64) AppleWebKit/537.36 (KHTML, like Gecko) Chrome/87.0.4280.141 Safari/537.36"
172.18.0.1 - - [15/Jan/2021:14:28:17 +0000] "GET /api/documentation HTTP/1.1" 200 647 "-" "Mozilla/5.0 (Windows NT 10.0; Win64; x64) AppleWebKit/537.36 (KHTML, like Gecko) Chrome/87.0.4280.141 Safari/537.36"
172.18.0.1 - - [15/Jan/2021:14:28:17 +0000] "GET /js/swagger-ui-standalone-preset.js HTTP/1.1" 200 329478 "http://localhost:8010/api/documentation" "Mozilla/5.0 (Windows NT 10.0; Win64; x64) AppleWebKit/537.36 (KHTML, like Gecko) Chrome/87.0.4280.141 Safari/537.36"
172.18.0.1 - - [15/Jan/2021:14:28:17 +0000] "GET /css/swagger-ui.css HTTP/1.1" 200 143074 "http://localhost:8010/api/documentation" "Mozilla/5.0 (Windows NT 10.0; Win64; x64) AppleWebKit/537.36 (KHTML, like Gecko) Chrome/87.0.4280.141 Safari/537.36"
172.18.0.1 - - [15/Jan/2021:14:28:17 +0000] "GET /js/swagger-ui-bundle.js HTTP/1.1" 200 1038437 "http://localhost:8010/api/documentation" "Mozilla/5.0 (Windows NT 10.0; Win64; x64) AppleWebKit/537.36 (KHTML, like Gecko) Chrome/87.0.4280.141 Safari/537.36"
172.18.0.1 - - [15/Jan/2021:14:28:17 +0000] "GET /favicon.ico HTTP/1.1" 200 318 "http://localhost:8010/api/documentation" "Mozilla/5.0 (Windows NT 10.0; Win64; x64) AppleWebKit/537.36 (KHTML, like Gecko) Chrome/87.0.4280.141 Safari/537.36"
172.18.0.1 - - [15/Jan/2021:14:28:17 +0000] "GET /api/documentation/swagger HTTP/1.1" 500 85007 "http://localhost:8010/api/documentation" "Mozilla/5.0 (Windows NT 10.0; Win64; x64) AppleWebKit/537.36 (KHTML, like Gecko) Chrome/87.0.4280.141 Safari/537.36"
172.18.0.1 - - [15/Jan/2021:14:28:54 +0000] "GET /api/documentation/swagger HTTP/1.1" 500 122210 "-" "Mozilla/5.0 (Windows NT 10.0; Win64; x64) AppleWebKit/537.36 (KHTML, like Gecko) Chrome/87.0.4280.141 Safari/537.36"
172.18.0.1 - - [15/Jan/2021:14:28:54 +0000] "GET /favicon.ico HTTP/1.1" 200 318 "http://localhost:8010/api/documentation/swagger" "Mozilla/5.0 (Windows NT 10.0; Win64; x64) AppleWebKit/537.36 (KHTML, like Gecko) Chrome/87.0.4280.141 Safari/537.36"
172.18.0.1 - - [15/Jan/2021:14:29:14 +0000] "GET /api/documentation/swagger HTTP/1.1" 500 85007 "-" "Mozilla/5.0 (Windows NT 10.0; Win64; x64) AppleWebKit/537.36 (KHTML, like Gecko) Chrome/87.0.4280.141 Safari/537.36"
172.18.0.1 - - [15/Jan/2021:14:29:14 +0000] "GET /favicon.ico HTTP/1.1" 200 318 "http://localhost:8010/api/documentation/swagger" "Mozilla/5.0 (Windows NT 10.0; Win64; x64) AppleWebKit/537.36 (KHTML, like Gecko) Chrome/87.0.4280.141 Safari/537.36"
172.18.0.1 - - [15/Jan/2021:14:31:58 +0000] "GET /api/documentation/swagger HTTP/1.1" 200 1680 "-" "Mozilla/5.0 (Windows NT 10.0; Win64; x64) AppleWebKit/537.36 (KHTML, like Gecko) Chrome/87.0.4280.141 Safari/537.36"
172.18.0.1 - - [15/Jan/2021:14:31:58 +0000] "GET /favicon.ico HTTP/1.1" 200 318 "http://localhost:8010/api/documentation/swagger" "Mozilla/5.0 (Windows NT 10.0; Win64; x64) AppleWebKit/537.36 (KHTML, like Gecko) Chrome/87.0.4280.141 Safari/537.36"
172.18.0.1 - - [15/Jan/2021:14:32:00 +0000] "GET /api/documentation HTTP/1.1" 200 647 "-" "Mozilla/5.0 (Windows NT 10.0; Win64; x64) AppleWebKit/537.36 (KHTML, like Gecko) Chrome/87.0.4280.141 Safari/537.36"
172.18.0.1 - - [15/Jan/2021:14:32:00 +0000] "GET /css/swagger-ui.css HTTP/1.1" 200 143074 "http://localhost:8010/api/documentation" "Mozilla/5.0 (Windows NT 10.0; Win64; x64) AppleWebKit/537.36 (KHTML, like Gecko) Chrome/87.0.4280.141 Safari/537.36"
172.18.0.1 - - [15/Jan/2021:14:32:00 +0000] "GET /js/swagger-ui-bundle.js HTTP/1.1" 200 1038437 "http://localhost:8010/api/documentation" "Mozilla/5.0 (Windows NT 10.0; Win64; x64) AppleWebKit/537.36 (KHTML, like Gecko) Chrome/87.0.4280.141 Safari/537.36"
172.18.0.1 - - [15/Jan/2021:14:32:00 +0000] "GET /js/swagger-ui-standalone-preset.js HTTP/1.1" 200 329478 "http://localhost:8010/api/documentation" "Mozilla/5.0 (Windows NT 10.0; Win64; x64) AppleWebKit/537.36 (KHTML, like Gecko) Chrome/87.0.4280.141 Safari/537.36"
172.18.0.1 - - [15/Jan/2021:14:32:00 +0000] "GET /favicon.ico HTTP/1.1" 200 318 "http://localhost:8010/api/documentation" "Mozilla/5.0 (Windows NT 10.0; Win64; x64) AppleWebKit/537.36 (KHTML, like Gecko) Chrome/87.0.4280.141 Safari/537.36"
172.18.0.1 - - [15/Jan/2021:14:32:00 +0000] "GET /api/documentation/swagger HTTP/1.1" 200 1680 "http://localhost:8010/api/documentation" "Mozilla/5.0 (Windows NT 10.0; Win64; x64) AppleWebKit/537.36 (KHTML, like Gecko) Chrome/87.0.4280.141 Safari/537.36"
172.18.0.1 - - [15/Jan/2021:14:32:19 +0000] "POST /api/tasks HTTP/1.1" 200 25 "http://localhost:8010/api/documentation" "Mozilla/5.0 (Windows NT 10.0; Win64; x64) AppleWebKit/537.36 (KHTML, like Gecko) Chrome/87.0.4280.141 Safari/537.36"
172.18.0.1 - - [15/Jan/2021:14:32:21 +0000] "POST /api/tasks HTTP/1.1" 200 25 "http://localhost:8010/api/documentation" "Mozilla/5.0 (Windows NT 10.0; Win64; x64) AppleWebKit/537.36 (KHTML, like Gecko) Chrome/87.0.4280.141 Safari/537.36"
172.18.0.1 - - [15/Jan/2021:14:32:22 +0000] "POST /api/tasks HTTP/1.1" 200 25 "http://localhost:8010/api/documentation" "Mozilla/5.0 (Windows NT 10.0; Win64; x64) AppleWebKit/537.36 (KHTML, like Gecko) Chrome/87.0.4280.141 Safari/537.36"
172.18.0.1 - - [15/Jan/2021:14:32:23 +0000] "POST /api/tasks HTTP/1.1" 200 25 "http://localhost:8010/api/documentation" "Mozilla/5.0 (Windows NT 10.0; Win64; x64) AppleWebKit/537.36 (KHTML, like Gecko) Chrome/87.0.4280.141 Safari/537.36"
172.18.0.1 - - [15/Jan/2021:14:32:23 +0000] "POST /api/tasks HTTP/1.1" 200 25 "http://localhost:8010/api/documentation" "Mozilla/5.0 (Windows NT 10.0; Win64; x64) AppleWebKit/537.36 (KHTML, like Gecko) Chrome/87.0.4280.141 Safari/537.36"
172.18.0.1 - - [15/Jan/2021:14:32:23 +0000] "POST /api/tasks HTTP/1.1" 200 25 "http://localhost:8010/api/documentation" "Mozilla/5.0 (Windows NT 10.0; Win64; x64) AppleWebKit/537.36 (KHTML, like Gecko) Chrome/87.0.4280.141 Safari/537.36"
172.18.0.1 - - [15/Jan/2021:14:32:23 +0000] "POST /api/tasks HTTP/1.1" 200 25 "http://localhost:8010/api/documentation" "Mozilla/5.0 (Windows NT 10.0; Win64; x64) AppleWebKit/537.36 (KHTML, like Gecko) Chrome/87.0.4280.141 Safari/537.36"
172.18.0.1 - - [15/Jan/2021:14:32:24 +0000] "POST /api/tasks HTTP/1.1" 200 25 "http://localhost:8010/api/documentation" "Mozilla/5.0 (Windows NT 10.0; Win64; x64) AppleWebKit/537.36 (KHTML, like Gecko) Chrome/87.0.4280.141 Safari/537.36"
172.18.0.1 - - [15/Jan/2021:14:32:24 +0000] "POST /api/tasks HTTP/1.1" 200 27 "http://localhost:8010/api/documentation" "Mozilla/5.0 (Windows NT 10.0; Win64; x64) AppleWebKit/537.36 (KHTML, like Gecko) Chrome/87.0.4280.141 Safari/537.36"
172.18.0.1 - - [15/Jan/2021:14:32:24 +0000] "POST /api/tasks HTTP/1.1" 200 27 "http://localhost:8010/api/documentation" "Mozilla/5.0 (Windows NT 10.0; Win64; x64) AppleWebKit/537.36 (KHTML, like Gecko) Chrome/87.0.4280.141 Safari/537.36"
172.18.0.1 - - [15/Jan/2021:14:32:24 +0000] "POST /api/tasks HTTP/1.1" 200 27 "http://localhost:8010/api/documentation" "Mozilla/5.0 (Windows NT 10.0; Win64; x64) AppleWebKit/537.36 (KHTML, like Gecko) Chrome/87.0.4280.141 Safari/537.36"
172.18.0.1 - - [15/Jan/2021:14:32:28 +0000] "POST /api/tasks HTTP/1.1" 200 130 "http://localhost:8010/api/documentation" "Mozilla/5.0 (Windows NT 10.0; Win64; x64) AppleWebKit/537.36 (KHTML, like Gecko) Chrome/87.0.4280.141 Safari/537.36"
172.18.0.1 - - [15/Jan/2021:14:32:32 +0000] "POST /api/tasks HTTP/1.1" 200 27 "http://localhost:8010/api/documentation" "Mozilla/5.0 (Windows NT 10.0; Win64; x64) AppleWebKit/537.36 (KHTML, like Gecko) Chrome/87.0.4280.141 Safari/537.36"
172.18.0.1 - - [15/Jan/2021:14:32:38 +0000] "POST /api/tasks HTTP/1.1" 200 130 "http://localhost:8010/api/documentation" "Mozilla/5.0 (Windows NT 10.0; Win64; x64) AppleWebKit/537.36 (KHTML, like Gecko) Chrome/87.0.4280.141 Safari/537.36"
172.18.0.1 - - [15/Jan/2021:14:32:39 +0000] "POST /api/tasks HTTP/1.1" 200 130 "http://localhost:8010/api/documentation" "Mozilla/5.0 (Windows NT 10.0; Win64; x64) AppleWebKit/537.36 (KHTML, like Gecko) Chrome/87.0.4280.141 Safari/537.36"
172.18.0.1 - - [15/Jan/2021:14:32:40 +0000] "POST /api/tasks HTTP/1.1" 200 130 "http://localhost:8010/api/documentation" "Mozilla/5.0 (Windows NT 10.0; Win64; x64) AppleWebKit/537.36 (KHTML, like Gecko) Chrome/87.0.4280.141 Safari/537.36"
172.18.0.1 - - [15/Jan/2021:14:32:40 +0000] "POST /api/tasks HTTP/1.1" 200 130 "http://localhost:8010/api/documentation" "Mozilla/5.0 (Windows NT 10.0; Win64; x64) AppleWebKit/537.36 (KHTML, like Gecko) Chrome/87.0.4280.141 Safari/537.36"
172.18.0.1 - - [15/Jan/2021:14:32:40 +0000] "POST /api/tasks HTTP/1.1" 200 130 "http://localhost:8010/api/documentation" "Mozilla/5.0 (Windows NT 10.0; Win64; x64) AppleWebKit/537.36 (KHTML, like Gecko) Chrome/87.0.4280.141 Safari/537.36"
172.18.0.1 - - [15/Jan/2021:14:32:41 +0000] "POST /api/tasks HTTP/1.1" 200 130 "http://localhost:8010/api/documentation" "Mozilla/5.0 (Windows NT 10.0; Win64; x64) AppleWebKit/537.36 (KHTML, like Gecko) Chrome/87.0.4280.141 Safari/537.36"
172.18.0.1 - - [15/Jan/2021:14:32:41 +0000] "POST /api/tasks HTTP/1.1" 200 130 "http://localhost:8010/api/documentation" "Mozilla/5.0 (Windows NT 10.0; Win64; x64) AppleWebKit/537.36 (KHTML, like Gecko) Chrome/87.0.4280.141 Safari/537.36"
172.18.0.1 - - [15/Jan/2021:14:32:44 +0000] "POST /api/tasks HTTP/1.1" 200 130 "http://localhost:8010/api/documentation" "Mozilla/5.0 (Windows NT 10.0; Win64; x64) AppleWebKit/537.36 (KHTML, like Gecko) Chrome/87.0.4280.141 Safari/537.36"
172.18.0.1 - - [15/Jan/2021:14:33:17 +0000] "POST /api/tasks HTTP/1.1" 200 130 "http://localhost:8010/api/documentation" "Mozilla/5.0 (Windows NT 10.0; Win64; x64) AppleWebKit/537.36 (KHTML, like Gecko) Chrome/87.0.4280.141 Safari/537.36"
172.18.0.1 - - [15/Jan/2021:14:33:23 +0000] "POST /api/tasks HTTP/1.1" 200 73 "http://localhost:8010/api/documentation" "Mozilla/5.0 (Windows NT 10.0; Win64; x64) AppleWebKit/537.36 (KHTML, like Gecko) Chrome/87.0.4280.141 Safari/537.36"
172.18.0.1 - - [15/Jan/2021:14:33:26 +0000] "POST /api/tasks HTTP/1.1" 200 73 "http://localhost:8010/api/documentation" "Mozilla/5.0 (Windows NT 10.0; Win64; x64) AppleWebKit/537.36 (KHTML, like Gecko) Chrome/87.0.4280.141 Safari/537.36"
172.18.0.1 - - [15/Jan/2021:14:33:36 +0000] "POST /api/tasks HTTP/1.1" 200 69 "http://localhost:8010/api/documentation" "Mozilla/5.0 (Windows NT 10.0; Win64; x64) AppleWebKit/537.36 (KHTML, like Gecko) Chrome/87.0.4280.141 Safari/537.36"
172.18.0.1 - - [15/Jan/2021:14:40:32 +0000] "POST /api/estimate/task HTTP/1.1" 200 144 "-" "PostmanRuntime/7.26.8"
172.18.0.1 - - [15/Jan/2021:14:40:55 +0000] "POST /api/estimate/task HTTP/1.1" 200 50 "-" "PostmanRuntime/7.26.8"
172.18.0.1 - - [15/Jan/2021:14:41:06 +0000] "POST /api/estimate/task HTTP/1.1" 200 50 "-" "PostmanRuntime/7.26.8"
172.18.0.1 - - [15/Jan/2021:14:41:08 +0000] "POST /api/estimate/task HTTP/1.1" 200 50 "-" "PostmanRuntime/7.26.8"
172.18.0.1 - - [15/Jan/2021:14:41:57 +0000] "POST /api/estimate/task HTTP/1.1" 200 50 "-" "PostmanRuntime/7.26.8"
172.18.0.1 - - [15/Jan/2021:14:42:19 +0000] "POST /api/estimate/task HTTP/1.1" 200 50 "-" "PostmanRuntime/7.26.8"
172.18.0.1 - - [15/Jan/2021:14:42:40 +0000] "POST /api/estimate/task HTTP/1.1" 200 50 "-" "PostmanRuntime/7.26.8"
172.18.0.1 - - [15/Jan/2021:14:45:37 +0000] "POST /api/estimate/task HTTP/1.1" 200 50 "-" "PostmanRuntime/7.26.8"
172.18.0.1 - - [15/Jan/2021:14:45:41 +0000] "POST /api/estimate/task HTTP/1.1" 200 50 "-" "PostmanRuntime/7.26.8"
172.18.0.1 - - [15/Jan/2021:14:45:46 +0000] "POST /api/estimate/task HTTP/1.1" 200 50 "-" "PostmanRuntime/7.26.8"
172.18.0.1 - - [15/Jan/2021:14:45:51 +0000] "POST /api/estimate/task HTTP/1.1" 200 50 "-" "PostmanRuntime/7.26.8"
172.18.0.1 - - [15/Jan/2021:14:45:53 +0000] "POST /api/estimate/task HTTP/1.1" 200 50 "-" "PostmanRuntime/7.26.8"
172.18.0.1 - - [15/Jan/2021:14:45:54 +0000] "POST /api/estimate/task HTTP/1.1" 200 50 "-" "PostmanRuntime/7.26.8"
172.18.0.1 - - [15/Jan/2021:14:46:17 +0000] "POST /api/estimate/task HTTP/1.1" 200 50 "-" "PostmanRuntime/7.26.8"
172.18.0.1 - - [15/Jan/2021:14:46:25 +0000] "POST /api/estimate/task HTTP/1.1" 200 144 "-" "PostmanRuntime/7.26.8"
172.18.0.1 - - [15/Jan/2021:14:46:33 +0000] "POST /api/estimate/task HTTP/1.1" 200 144 "-" "PostmanRuntime/7.26.8"
172.18.0.1 - - [15/Jan/2021:14:46:35 +0000] "POST /api/estimate/task HTTP/1.1" 200 144 "-" "PostmanRuntime/7.26.8"
172.18.0.1 - - [15/Jan/2021:14:46:36 +0000] "POST /api/estimate/task HTTP/1.1" 200 144 "-" "PostmanRuntime/7.26.8"
172.18.0.1 - - [15/Jan/2021:14:46:37 +0000] "POST /api/estimate/task HTTP/1.1" 200 144 "-" "PostmanRuntime/7.26.8"
172.18.0.1 - - [15/Jan/2021:14:46:41 +0000] "POST /api/estimate/task HTTP/1.1" 200 144 "-" "PostmanRuntime/7.26.8"
172.18.0.1 - - [15/Jan/2021:14:47:06 +0000] "POST /api/estimate/task HTTP/1.1" 200 50 "-" "PostmanRuntime/7.26.8"
172.18.0.1 - - [15/Jan/2021:14:47:17 +0000] "POST /api/estimate/task HTTP/1.1" 200 50 "-" "PostmanRuntime/7.26.8"
172.18.0.1 - - [15/Jan/2021:14:47:18 +0000] "POST /api/estimate/task HTTP/1.1" 200 50 "-" "PostmanRuntime/7.26.8"
172.18.0.1 - - [15/Jan/2021:14:48:58 +0000] "POST /api/estimate/task HTTP/1.1" 500 66045 "-" "PostmanRuntime/7.26.8"
172.18.0.1 - - [15/Jan/2021:14:49:37 +0000] "GET /api/documentation HTTP/1.1" 200 647 "-" "Mozilla/5.0 (Windows NT 10.0; Win64; x64) AppleWebKit/537.36 (KHTML, like Gecko) Chrome/87.0.4280.141 Safari/537.36"
172.18.0.1 - - [15/Jan/2021:14:49:37 +0000] "GET /css/swagger-ui.css HTTP/1.1" 200 143074 "http://localhost:8010/api/documentation" "Mozilla/5.0 (Windows NT 10.0; Win64; x64) AppleWebKit/537.36 (KHTML, like Gecko) Chrome/87.0.4280.141 Safari/537.36"
172.18.0.1 - - [15/Jan/2021:14:49:37 +0000] "GET /js/swagger-ui-bundle.js HTTP/1.1" 200 1038437 "http://localhost:8010/api/documentation" "Mozilla/5.0 (Windows NT 10.0; Win64; x64) AppleWebKit/537.36 (KHTML, like Gecko) Chrome/87.0.4280.141 Safari/537.36"
172.18.0.1 - - [15/Jan/2021:14:49:37 +0000] "GET /js/swagger-ui-standalone-preset.js HTTP/1.1" 200 329478 "http://localhost:8010/api/documentation" "Mozilla/5.0 (Windows NT 10.0; Win64; x64) AppleWebKit/537.36 (KHTML, like Gecko) Chrome/87.0.4280.141 Safari/537.36"
172.18.0.1 - - [15/Jan/2021:14:49:37 +0000] "GET /favicon.ico HTTP/1.1" 200 318 "http://localhost:8010/api/documentation" "Mozilla/5.0 (Windows NT 10.0; Win64; x64) AppleWebKit/537.36 (KHTML, like Gecko) Chrome/87.0.4280.141 Safari/537.36"
172.18.0.1 - - [15/Jan/2021:14:49:37 +0000] "GET /api/documentation/swagger HTTP/1.1" 200 1820 "http://localhost:8010/api/documentation" "Mozilla/5.0 (Windows NT 10.0; Win64; x64) AppleWebKit/537.36 (KHTML, like Gecko) Chrome/87.0.4280.141 Safari/537.36"
172.18.0.1 - - [15/Jan/2021:14:49:42 +0000] "POST /api/estimate/task HTTP/1.1" 200 50 "http://localhost:8010/api/documentation" "Mozilla/5.0 (Windows NT 10.0; Win64; x64) AppleWebKit/537.36 (KHTML, like Gecko) Chrome/87.0.4280.141 Safari/537.36"
172.18.0.1 - - [15/Jan/2021:14:49:43 +0000] "POST /api/estimate/task HTTP/1.1" 200 50 "http://localhost:8010/api/documentation" "Mozilla/5.0 (Windows NT 10.0; Win64; x64) AppleWebKit/537.36 (KHTML, like Gecko) Chrome/87.0.4280.141 Safari/537.36"
172.18.0.1 - - [15/Jan/2021:14:49:45 +0000] "POST /api/estimate/task HTTP/1.1" 200 50 "http://localhost:8010/api/documentation" "Mozilla/5.0 (Windows NT 10.0; Win64; x64) AppleWebKit/537.36 (KHTML, like Gecko) Chrome/87.0.4280.141 Safari/537.36"
172.18.0.1 - - [15/Jan/2021:14:49:45 +0000] "POST /api/estimate/task HTTP/1.1" 200 50 "http://localhost:8010/api/documentation" "Mozilla/5.0 (Windows NT 10.0; Win64; x64) AppleWebKit/537.36 (KHTML, like Gecko) Chrome/87.0.4280.141 Safari/537.36"
172.18.0.1 - - [15/Jan/2021:14:49:46 +0000] "POST /api/estimate/task HTTP/1.1" 200 50 "http://localhost:8010/api/documentation" "Mozilla/5.0 (Windows NT 10.0; Win64; x64) AppleWebKit/537.36 (KHTML, like Gecko) Chrome/87.0.4280.141 Safari/537.36"
172.18.0.1 - - [15/Jan/2021:14:49:46 +0000] "POST /api/estimate/task HTTP/1.1" 200 50 "http://localhost:8010/api/documentation" "Mozilla/5.0 (Windows NT 10.0; Win64; x64) AppleWebKit/537.36 (KHTML, like Gecko) Chrome/87.0.4280.141 Safari/537.36"
172.18.0.1 - - [15/Jan/2021:14:49:57 +0000] "POST /api/estimate/task HTTP/1.1" 200 50 "-" "PostmanRuntime/7.26.8"
172.18.0.1 - - [15/Jan/2021:14:50:17 +0000] "POST /api/tasks HTTP/1.1" 200 27 "http://localhost:8010/api/documentation" "Mozilla/5.0 (Windows NT 10.0; Win64; x64) AppleWebKit/537.36 (KHTML, like Gecko) Chrome/87.0.4280.141 Safari/537.36"
172.18.0.1 - - [15/Jan/2021:14:50:19 +0000] "POST /api/tasks HTTP/1.1" 200 27 "http://localhost:8010/api/documentation" "Mozilla/5.0 (Windows NT 10.0; Win64; x64) AppleWebKit/537.36 (KHTML, like Gecko) Chrome/87.0.4280.141 Safari/537.36"
172.18.0.1 - - [15/Jan/2021:14:50:20 +0000] "POST /api/tasks HTTP/1.1" 200 27 "http://localhost:8010/api/documentation" "Mozilla/5.0 (Windows NT 10.0; Win64; x64) AppleWebKit/537.36 (KHTML, like Gecko) Chrome/87.0.4280.141 Safari/537.36"
172.18.0.1 - - [15/Jan/2021:14:50:36 +0000] "POST /api/estimate/task HTTP/1.1" 200 50 "http://localhost:8010/api/documentation" "Mozilla/5.0 (Windows NT 10.0; Win64; x64) AppleWebKit/537.36 (KHTML, like Gecko) Chrome/87.0.4280.141 Safari/537.36"
172.18.0.1 - - [15/Jan/2021:14:50:37 +0000] "POST /api/estimate/task HTTP/1.1" 200 50 "http://localhost:8010/api/documentation" "Mozilla/5.0 (Windows NT 10.0; Win64; x64) AppleWebKit/537.36 (KHTML, like Gecko) Chrome/87.0.4280.141 Safari/537.36"
172.18.0.1 - - [15/Jan/2021:14:51:21 +0000] "POST /api/estimate/task HTTP/1.1" 200 762 "-" "PostmanRuntime/7.26.8"
172.18.0.1 - - [15/Jan/2021:14:51:37 +0000] "POST /api/estimate/task HTTP/1.1" 200 762 "-" "PostmanRuntime/7.26.8"
172.18.0.1 - - [15/Jan/2021:14:51:51 +0000] "POST /api/estimate/task HTTP/1.1" 200 235 "-" "PostmanRuntime/7.26.8"
172.18.0.1 - - [15/Jan/2021:14:52:03 +0000] "POST /api/estimate/task HTTP/1.1" 200 754 "-" "PostmanRuntime/7.26.8"
172.18.0.1 - - [15/Jan/2021:14:52:12 +0000] "POST /api/estimate/task HTTP/1.1" 200 235 "-" "PostmanRuntime/7.26.8"
172.18.0.1 - - [15/Jan/2021:14:52:19 +0000] "POST /api/estimate/task HTTP/1.1" 200 754 "-" "PostmanRuntime/7.26.8"
172.18.0.1 - - [15/Jan/2021:14:52:24 +0000] "POST /api/estimate/task HTTP/1.1" 200 754 "-" "PostmanRuntime/7.26.8"
172.18.0.1 - - [15/Jan/2021:14:53:23 +0000] "POST /api/estimate/task HTTP/1.1" 200 235 "-" "PostmanRuntime/7.26.8"
172.18.0.1 - - [15/Jan/2021:14:53:38 +0000] "POST /api/estimate/task HTTP/1.1" 200 754 "-" "PostmanRuntime/7.26.8"
172.18.0.1 - - [15/Jan/2021:14:54:03 +0000] "POST /api/estimate/task HTTP/1.1" 200 762 "-" "PostmanRuntime/7.26.8"
172.18.0.1 - - [15/Jan/2021:14:56:26 +0000] "POST /api/estimate/task HTTP/1.1" 200 759 "-" "PostmanRuntime/7.26.8"
172.18.0.1 - - [15/Jan/2021:14:56:46 +0000] "POST /api/estimate/task HTTP/1.1" 200 106 "-" "PostmanRuntime/7.26.8"
172.18.0.1 - - [15/Jan/2021:14:56:57 +0000] "POST /api/estimate/task HTTP/1.1" 200 142 "-" "PostmanRuntime/7.26.8"
172.18.0.1 - - [15/Jan/2021:14:57:04 +0000] "POST /api/estimate/task HTTP/1.1" 200 66 "-" "PostmanRuntime/7.26.8"
172.18.0.1 - - [15/Jan/2021:14:57:26 +0000] "GET /api/documentation HTTP/1.1" 200 647 "-" "Mozilla/5.0 (Windows NT 10.0; Win64; x64) AppleWebKit/537.36 (KHTML, like Gecko) Chrome/87.0.4280.141 Safari/537.36"
172.18.0.1 - - [15/Jan/2021:14:57:26 +0000] "GET /js/swagger-ui-bundle.js HTTP/1.1" 200 1038437 "http://localhost:8010/api/documentation" "Mozilla/5.0 (Windows NT 10.0; Win64; x64) AppleWebKit/537.36 (KHTML, like Gecko) Chrome/87.0.4280.141 Safari/537.36"
172.18.0.1 - - [15/Jan/2021:14:57:26 +0000] "GET /css/swagger-ui.css HTTP/1.1" 200 143074 "http://localhost:8010/api/documentation" "Mozilla/5.0 (Windows NT 10.0; Win64; x64) AppleWebKit/537.36 (KHTML, like Gecko) Chrome/87.0.4280.141 Safari/537.36"
172.18.0.1 - - [15/Jan/2021:14:57:26 +0000] "GET /js/swagger-ui-standalone-preset.js HTTP/1.1" 200 329478 "http://localhost:8010/api/documentation" "Mozilla/5.0 (Windows NT 10.0; Win64; x64) AppleWebKit/537.36 (KHTML, like Gecko) Chrome/87.0.4280.141 Safari/537.36"
172.18.0.1 - - [15/Jan/2021:14:57:26 +0000] "GET /api/documentation/swagger HTTP/1.1" 200 1820 "http://localhost:8010/api/documentation" "Mozilla/5.0 (Windows NT 10.0; Win64; x64) AppleWebKit/537.36 (KHTML, like Gecko) Chrome/87.0.4280.141 Safari/537.36"
172.18.0.1 - - [15/Jan/2021:14:57:34 +0000] "POST /api/estimate/task HTTP/1.1" 200 66 "http://localhost:8010/api/documentation" "Mozilla/5.0 (Windows NT 10.0; Win64; x64) AppleWebKit/537.36 (KHTML, like Gecko) Chrome/87.0.4280.141 Safari/537.36"
172.18.0.1 - - [15/Jan/2021:14:58:35 +0000] "POST /api/estimate/task HTTP/1.1" 200 66 "http://localhost:8010/api/documentation" "Mozilla/5.0 (Windows NT 10.0; Win64; x64) AppleWebKit/537.36 (KHTML, like Gecko) Chrome/87.0.4280.141 Safari/537.36"
172.18.0.1 - - [15/Jan/2021:15:06:28 +0000] "GET /api/documentation HTTP/1.1" 200 647 "-" "Mozilla/5.0 (Windows NT 10.0; Win64; x64) AppleWebKit/537.36 (KHTML, like Gecko) Chrome/87.0.4280.141 Safari/537.36"
172.18.0.1 - - [15/Jan/2021:15:06:28 +0000] "GET /css/swagger-ui.css HTTP/1.1" 200 143074 "http://localhost:8010/api/documentation" "Mozilla/5.0 (Windows NT 10.0; Win64; x64) AppleWebKit/537.36 (KHTML, like Gecko) Chrome/87.0.4280.141 Safari/537.36"
172.18.0.1 - - [15/Jan/2021:15:06:28 +0000] "GET /js/swagger-ui-bundle.js HTTP/1.1" 200 1038437 "http://localhost:8010/api/documentation" "Mozilla/5.0 (Windows NT 10.0; Win64; x64) AppleWebKit/537.36 (KHTML, like Gecko) Chrome/87.0.4280.141 Safari/537.36"
172.18.0.1 - - [15/Jan/2021:15:06:28 +0000] "GET /js/swagger-ui-standalone-preset.js HTTP/1.1" 200 329478 "http://localhost:8010/api/documentation" "Mozilla/5.0 (Windows NT 10.0; Win64; x64) AppleWebKit/537.36 (KHTML, like Gecko) Chrome/87.0.4280.141 Safari/537.36"
172.18.0.1 - - [15/Jan/2021:15:06:28 +0000] "GET /favicon.ico HTTP/1.1" 200 318 "http://localhost:8010/api/documentation" "Mozilla/5.0 (Windows NT 10.0; Win64; x64) AppleWebKit/537.36 (KHTML, like Gecko) Chrome/87.0.4280.141 Safari/537.36"
172.18.0.1 - - [15/Jan/2021:15:06:28 +0000] "GET /api/documentation/swagger HTTP/1.1" 200 1999 "http://localhost:8010/api/documentation" "Mozilla/5.0 (Windows NT 10.0; Win64; x64) AppleWebKit/537.36 (KHTML, like Gecko) Chrome/87.0.4280.141 Safari/537.36"
172.18.0.1 - - [15/Jan/2021:15:06:33 +0000] "POST /api/sprints/add-task HTTP/1.1" 200 73 "http://localhost:8010/api/documentation" "Mozilla/5.0 (Windows NT 10.0; Win64; x64) AppleWebKit/537.36 (KHTML, like Gecko) Chrome/87.0.4280.141 Safari/537.36"
172.18.0.1 - - [15/Jan/2021:15:06:45 +0000] "POST /api/sprints/add-task HTTP/1.1" 200 73 "http://localhost:8010/api/documentation" "Mozilla/5.0 (Windows NT 10.0; Win64; x64) AppleWebKit/537.36 (KHTML, like Gecko) Chrome/87.0.4280.141 Safari/537.36"
172.18.0.1 - - [15/Jan/2021:15:06:47 +0000] "POST /api/sprints/add-task HTTP/1.1" 200 73 "http://localhost:8010/api/documentation" "Mozilla/5.0 (Windows NT 10.0; Win64; x64) AppleWebKit/537.36 (KHTML, like Gecko) Chrome/87.0.4280.141 Safari/537.36"
172.18.0.1 - - [15/Jan/2021:15:07:00 +0000] "POST /api/sprints/add-task HTTP/1.1" 200 88 "http://localhost:8010/api/documentation" "Mozilla/5.0 (Windows NT 10.0; Win64; x64) AppleWebKit/537.36 (KHTML, like Gecko) Chrome/87.0.4280.141 Safari/537.36"
172.18.0.1 - - [15/Jan/2021:15:07:10 +0000] "POST /api/sprints/add-task HTTP/1.1" 200 108 "http://localhost:8010/api/documentation" "Mozilla/5.0 (Windows NT 10.0; Win64; x64) AppleWebKit/537.36 (KHTML, like Gecko) Chrome/87.0.4280.141 Safari/537.36"
172.18.0.1 - - [15/Jan/2021:15:10:05 +0000] "GET /api/documentation HTTP/1.1" 200 647 "-" "Mozilla/5.0 (Windows NT 10.0; Win64; x64) AppleWebKit/537.36 (KHTML, like Gecko) Chrome/87.0.4280.141 Safari/537.36"
172.18.0.1 - - [15/Jan/2021:15:10:05 +0000] "GET /css/swagger-ui.css HTTP/1.1" 200 143074 "http://localhost:8010/api/documentation" "Mozilla/5.0 (Windows NT 10.0; Win64; x64) AppleWebKit/537.36 (KHTML, like Gecko) Chrome/87.0.4280.141 Safari/537.36"
172.18.0.1 - - [15/Jan/2021:15:10:05 +0000] "GET /js/swagger-ui-bundle.js HTTP/1.1" 200 1038437 "http://localhost:8010/api/documentation" "Mozilla/5.0 (Windows NT 10.0; Win64; x64) AppleWebKit/537.36 (KHTML, like Gecko) Chrome/87.0.4280.141 Safari/537.36"
172.18.0.1 - - [15/Jan/2021:15:10:05 +0000] "GET /js/swagger-ui-standalone-preset.js HTTP/1.1" 200 329478 "http://localhost:8010/api/documentation" "Mozilla/5.0 (Windows NT 10.0; Win64; x64) AppleWebKit/537.36 (KHTML, like Gecko) Chrome/87.0.4280.141 Safari/537.36"
172.18.0.1 - - [15/Jan/2021:15:10:05 +0000] "GET /favicon.ico HTTP/1.1" 200 318 "http://localhost:8010/api/documentation" "Mozilla/5.0 (Windows NT 10.0; Win64; x64) AppleWebKit/537.36 (KHTML, like Gecko) Chrome/87.0.4280.141 Safari/537.36"
172.18.0.1 - - [15/Jan/2021:15:10:05 +0000] "GET /api/documentation/swagger HTTP/1.1" 200 2173 "http://localhost:8010/api/documentation" "Mozilla/5.0 (Windows NT 10.0; Win64; x64) AppleWebKit/537.36 (KHTML, like Gecko) Chrome/87.0.4280.141 Safari/537.36"
172.18.0.1 - - [15/Jan/2021:15:10:10 +0000] "POST /api/tasks/close HTTP/1.1" 200 74 "http://localhost:8010/api/documentation" "Mozilla/5.0 (Windows NT 10.0; Win64; x64) AppleWebKit/537.36 (KHTML, like Gecko) Chrome/87.0.4280.141 Safari/537.36"
172.18.0.1 - - [15/Jan/2021:15:10:20 +0000] "POST /api/tasks/close HTTP/1.1" 200 75 "http://localhost:8010/api/documentation" "Mozilla/5.0 (Windows NT 10.0; Win64; x64) AppleWebKit/537.36 (KHTML, like Gecko) Chrome/87.0.4280.141 Safari/537.36"
172.18.0.1 - - [16/Jan/2021:11:10:13 +0000] "GET /api/documentation HTTP/1.1" 200 647 "-" "Mozilla/5.0 (Windows NT 10.0; Win64; x64) AppleWebKit/537.36 (KHTML, like Gecko) Chrome/87.0.4280.141 Safari/537.36"
172.18.0.1 - - [16/Jan/2021:11:10:13 +0000] "GET /js/swagger-ui-bundle.js HTTP/1.1" 200 1038437 "http://localhost:8010/api/documentation" "Mozilla/5.0 (Windows NT 10.0; Win64; x64) AppleWebKit/537.36 (KHTML, like Gecko) Chrome/87.0.4280.141 Safari/537.36"
172.18.0.1 - - [16/Jan/2021:11:10:13 +0000] "GET /css/swagger-ui.css HTTP/1.1" 200 143074 "http://localhost:8010/api/documentation" "Mozilla/5.0 (Windows NT 10.0; Win64; x64) AppleWebKit/537.36 (KHTML, like Gecko) Chrome/87.0.4280.141 Safari/537.36"
172.18.0.1 - - [16/Jan/2021:11:10:13 +0000] "GET /js/swagger-ui-standalone-preset.js HTTP/1.1" 200 329478 "http://localhost:8010/api/documentation" "Mozilla/5.0 (Windows NT 10.0; Win64; x64) AppleWebKit/537.36 (KHTML, like Gecko) Chrome/87.0.4280.141 Safari/537.36"
172.18.0.1 - - [16/Jan/2021:11:10:14 +0000] "GET /api/documentation/swagger HTTP/1.1" 200 2174 "http://localhost:8010/api/documentation" "Mozilla/5.0 (Windows NT 10.0; Win64; x64) AppleWebKit/537.36 (KHTML, like Gecko) Chrome/87.0.4280.141 Safari/537.36"
172.18.0.1 - - [16/Jan/2021:11:10:25 +0000] "POST /api/sprints/start HTTP/1.1" 200 67 "http://localhost:8010/api/documentation" "Mozilla/5.0 (Windows NT 10.0; Win64; x64) AppleWebKit/537.36 (KHTML, like Gecko) Chrome/87.0.4280.141 Safari/537.36"
